^D:\LAB\NESNE TABANLı PROGRAMLAMA\GUZPROJE\OOP_1PROJECT\OOP_1PROJECT\ROBOTAPITEST.CPP
C:\WINDOWS\GLOBALIZATION\SORTING\SORTDEFAULT.NLS
C:\PROGRAM FILES (X86)\MICROSOFT VISUAL STUDIO\2017\COMMUNITY\VC\TOOLS\MSVC\14.13.26128\BIN\HOSTX86\X64\1033\CLUI.DLL
C:\WINDOWS\SYSTEM32\TZRES.DLL
D:\LAB\NESNE TABANLı PROGRAMLAMA\GUZPROJE\OOP_1PROJECT\OOP_1PROJECT\PIONEERROBOTAPI.H
D:\LAB\NESNE TABANLı PROGRAMLAMA\GUZPROJE\OOP_1PROJECT\OOP_1PROJECT\ARIA.H
D:\LAB\NESNE TABANLı PROGRAMLAMA\GUZPROJE\OOP_1PROJECT\OOP_1PROJECT\ARIAOSDEF.H
D:\LAB\NESNE TABANLı PROGRAMLAMA\GUZPROJE\OOP_1PROJECT\OOP_1PROJECT\ARIATYPEDEFS.H
C:\PROGRAM FILES (X86)\WINDOWS KITS\10\INCLUDE\10.0.16299.0\UCRT\TIME.H
C:\PROGRAM FILES (X86)\WINDOWS KITS\10\INCLUDE\10.0.16299.0\UCRT\CORECRT.H
C:\PROGRAM FILES (X86)\MICROSOFT VISUAL STUDIO\2017\COMMUNITY\VC\TOOLS\MSVC\14.13.26128\INCLUDE\VCRUNTIME.H
C:\PROGRAM FILES (X86)\MICROSOFT VISUAL STUDIO\2017\COMMUNITY\VC\TOOLS\MSVC\14.13.26128\INCLUDE\SAL.H
C:\PROGRAM FILES (X86)\MICROSOFT VISUAL STUDIO\2017\COMMUNITY\VC\TOOLS\MSVC\14.13.26128\INCLUDE\CONCURRENCYSAL.H
C:\PROGRAM FILES (X86)\MICROSOFT VISUAL STUDIO\2017\COMMUNITY\VC\TOOLS\MSVC\14.13.26128\INCLUDE\VADEFS.H
C:\PROGRAM FILES (X86)\WINDOWS KITS\10\INCLUDE\10.0.16299.0\UCRT\CORECRT_WTIME.H
C:\PROGRAM FILES (X86)\MICROSOFT VISUAL STUDIO\2017\COMMUNITY\VC\TOOLS\MSVC\14.13.26128\INCLUDE\STRING
C:\PROGRAM FILES (X86)\MICROSOFT VISUAL STUDIO\2017\COMMUNITY\VC\TOOLS\MSVC\14.13.26128\INCLUDE\ISTREAM
C:\PROGRAM FILES (X86)\MICROSOFT VISUAL STUDIO\2017\COMMUNITY\VC\TOOLS\MSVC\14.13.26128\INCLUDE\OSTREAM
C:\PROGRAM FILES (X86)\MICROSOFT VISUAL STUDIO\2017\COMMUNITY\VC\TOOLS\MSVC\14.13.26128\INCLUDE\IOS
C:\PROGRAM FILES (X86)\MICROSOFT VISUAL STUDIO\2017\COMMUNITY\VC\TOOLS\MSVC\14.13.26128\INCLUDE\XLOCNUM
C:\PROGRAM FILES (X86)\MICROSOFT VISUAL STUDIO\2017\COMMUNITY\VC\TOOLS\MSVC\14.13.26128\INCLUDE\CLIMITS
C:\PROGRAM FILES (X86)\MICROSOFT VISUAL STUDIO\2017\COMMUNITY\VC\TOOLS\MSVC\14.13.26128\INCLUDE\YVALS.H
C:\PROGRAM FILES (X86)\MICROSOFT VISUAL STUDIO\2017\COMMUNITY\VC\TOOLS\MSVC\14.13.26128\INCLUDE\XKEYCHECK.H
C:\PROGRAM FILES (X86)\MICROSOFT VISUAL STUDIO\2017\COMMUNITY\VC\TOOLS\MSVC\14.13.26128\INCLUDE\CRTDEFS.H
C:\PROGRAM FILES (X86)\MICROSOFT VISUAL STUDIO\2017\COMMUNITY\VC\TOOLS\MSVC\14.13.26128\INCLUDE\USE_ANSI.H
C:\PROGRAM FILES (X86)\MICROSOFT VISUAL STUDIO\2017\COMMUNITY\VC\TOOLS\MSVC\14.13.26128\INCLUDE\LIMITS.H
C:\PROGRAM FILES (X86)\MICROSOFT VISUAL STUDIO\2017\COMMUNITY\VC\TOOLS\MSVC\14.13.26128\INCLUDE\CMATH
C:\PROGRAM FILES (X86)\MICROSOFT VISUAL STUDIO\2017\COMMUNITY\VC\TOOLS\MSVC\14.13.26128\INCLUDE\CSTDLIB
C:\PROGRAM FILES (X86)\WINDOWS KITS\10\INCLUDE\10.0.16299.0\UCRT\STDLIB.H
C:\PROGRAM FILES (X86)\WINDOWS KITS\10\INCLUDE\10.0.16299.0\UCRT\CORECRT_MALLOC.H
C:\PROGRAM FILES (X86)\WINDOWS KITS\10\INCLUDE\10.0.16299.0\UCRT\CORECRT_SEARCH.H
C:\PROGRAM FILES (X86)\WINDOWS KITS\10\INCLUDE\10.0.16299.0\UCRT\STDDEF.H
C:\PROGRAM FILES (X86)\WINDOWS KITS\10\INCLUDE\10.0.16299.0\UCRT\CORECRT_WSTDLIB.H
C:\PROGRAM FILES (X86)\WINDOWS KITS\10\INCLUDE\10.0.16299.0\UCRT\MATH.H
C:\PROGRAM FILES (X86)\WINDOWS KITS\10\INCLUDE\10.0.16299.0\UCRT\CORECRT_MATH.H
C:\PROGRAM FILES (X86)\MICROSOFT VISUAL STUDIO\2017\COMMUNITY\VC\TOOLS\MSVC\14.13.26128\INCLUDE\XTGMATH.H
C:\PROGRAM FILES (X86)\MICROSOFT VISUAL STUDIO\2017\COMMUNITY\VC\TOOLS\MSVC\14.13.26128\INCLUDE\XTR1COMMON
C:\PROGRAM FILES (X86)\MICROSOFT VISUAL STUDIO\2017\COMMUNITY\VC\TOOLS\MSVC\14.13.26128\INCLUDE\CSTDIO
C:\PROGRAM FILES (X86)\WINDOWS KITS\10\INCLUDE\10.0.16299.0\UCRT\STDIO.H
C:\PROGRAM FILES (X86)\WINDOWS KITS\10\INCLUDE\10.0.16299.0\UCRT\CORECRT_WSTDIO.H
C:\PROGRAM FILES (X86)\WINDOWS KITS\10\INCLUDE\10.0.16299.0\UCRT\CORECRT_STDIO_CONFIG.H
C:\PROGRAM FILES (X86)\MICROSOFT VISUAL STUDIO\2017\COMMUNITY\VC\TOOLS\MSVC\14.13.26128\INCLUDE\STREAMBUF
C:\PROGRAM FILES (X86)\MICROSOFT VISUAL STUDIO\2017\COMMUNITY\VC\TOOLS\MSVC\14.13.26128\INCLUDE\XIOSBASE
C:\PROGRAM FILES (X86)\MICROSOFT VISUAL STUDIO\2017\COMMUNITY\VC\TOOLS\MSVC\14.13.26128\INCLUDE\XLOCALE
C:\PROGRAM FILES (X86)\MICROSOFT VISUAL STUDIO\2017\COMMUNITY\VC\TOOLS\MSVC\14.13.26128\INCLUDE\CSTRING
C:\PROGRAM FILES (X86)\WINDOWS KITS\10\INCLUDE\10.0.16299.0\UCRT\STRING.H
C:\PROGRAM FILES (X86)\WINDOWS KITS\10\INCLUDE\10.0.16299.0\UCRT\CORECRT_MEMORY.H
C:\PROGRAM FILES (X86)\WINDOWS KITS\10\INCLUDE\10.0.16299.0\UCRT\CORECRT_MEMCPY_S.H
C:\PROGRAM FILES (X86)\WINDOWS KITS\10\INCLUDE\10.0.16299.0\UCRT\ERRNO.H
C:\PROGRAM FILES (X86)\MICROSOFT VISUAL STUDIO\2017\COMMUNITY\VC\TOOLS\MSVC\14.13.26128\INCLUDE\VCRUNTIME_STRING.H
C:\PROGRAM FILES (X86)\WINDOWS KITS\10\INCLUDE\10.0.16299.0\UCRT\CORECRT_WSTRING.H
C:\PROGRAM FILES (X86)\MICROSOFT VISUAL STUDIO\2017\COMMUNITY\VC\TOOLS\MSVC\14.13.26128\INCLUDE\STDEXCEPT
C:\PROGRAM FILES (X86)\MICROSOFT VISUAL STUDIO\2017\COMMUNITY\VC\TOOLS\MSVC\14.13.26128\INCLUDE\EXCEPTION
C:\PROGRAM FILES (X86)\MICROSOFT VISUAL STUDIO\2017\COMMUNITY\VC\TOOLS\MSVC\14.13.26128\INCLUDE\TYPE_TRAITS
C:\PROGRAM FILES (X86)\MICROSOFT VISUAL STUDIO\2017\COMMUNITY\VC\TOOLS\MSVC\14.13.26128\INCLUDE\XSTDDEF
C:\PROGRAM FILES (X86)\MICROSOFT VISUAL STUDIO\2017\COMMUNITY\VC\TOOLS\MSVC\14.13.26128\INCLUDE\CSTDDEF
C:\PROGRAM FILES (X86)\MICROSOFT VISUAL STUDIO\2017\COMMUNITY\VC\TOOLS\MSVC\14.13.26128\INCLUDE\INITIALIZER_LIST
C:\PROGRAM FILES (X86)\WINDOWS KITS\10\INCLUDE\10.0.16299.0\UCRT\MALLOC.H
C:\PROGRAM FILES (X86)\MICROSOFT VISUAL STUDIO\2017\COMMUNITY\VC\TOOLS\MSVC\14.13.26128\INCLUDE\VCRUNTIME_EXCEPTION.H
C:\PROGRAM FILES (X86)\MICROSOFT VISUAL STUDIO\2017\COMMUNITY\VC\TOOLS\MSVC\14.13.26128\INCLUDE\EH.H
C:\PROGRAM FILES (X86)\WINDOWS KITS\10\INCLUDE\10.0.16299.0\UCRT\CORECRT_TERMINATE.H
C:\PROGRAM FILES (X86)\MICROSOFT VISUAL STUDIO\2017\COMMUNITY\VC\TOOLS\MSVC\14.13.26128\INCLUDE\XSTRING
C:\PROGRAM FILES (X86)\MICROSOFT VISUAL STUDIO\2017\COMMUNITY\VC\TOOLS\MSVC\14.13.26128\INCLUDE\XMEMORY0
C:\PROGRAM FILES (X86)\MICROSOFT VISUAL STUDIO\2017\COMMUNITY\VC\TOOLS\MSVC\14.13.26128\INCLUDE\CSTDINT
C:\PROGRAM FILES (X86)\MICROSOFT VISUAL STUDIO\2017\COMMUNITY\VC\TOOLS\MSVC\14.13.26128\INCLUDE\STDINT.H
C:\PROGRAM FILES (X86)\MICROSOFT VISUAL STUDIO\2017\COMMUNITY\VC\TOOLS\MSVC\14.13.26128\INCLUDE\LIMITS
C:\PROGRAM FILES (X86)\MICROSOFT VISUAL STUDIO\2017\COMMUNITY\VC\TOOLS\MSVC\14.13.26128\INCLUDE\YMATH.H
C:\PROGRAM FILES (X86)\MICROSOFT VISUAL STUDIO\2017\COMMUNITY\VC\TOOLS\MSVC\14.13.26128\INCLUDE\CFLOAT
C:\PROGRAM FILES (X86)\WINDOWS KITS\10\INCLUDE\10.0.16299.0\UCRT\FLOAT.H
C:\PROGRAM FILES (X86)\MICROSOFT VISUAL STUDIO\2017\COMMUNITY\VC\TOOLS\MSVC\14.13.26128\INCLUDE\CWCHAR
C:\PROGRAM FILES (X86)\WINDOWS KITS\10\INCLUDE\10.0.16299.0\UCRT\WCHAR.H
C:\PROGRAM FILES (X86)\WINDOWS KITS\10\INCLUDE\10.0.16299.0\UCRT\CORECRT_WCONIO.H
C:\PROGRAM FILES (X86)\WINDOWS KITS\10\INCLUDE\10.0.16299.0\UCRT\CORECRT_WCTYPE.H
C:\PROGRAM FILES (X86)\WINDOWS KITS\10\INCLUDE\10.0.16299.0\UCRT\CORECRT_WDIRECT.H
C:\PROGRAM FILES (X86)\WINDOWS KITS\10\INCLUDE\10.0.16299.0\UCRT\CORECRT_WIO.H
C:\PROGRAM FILES (X86)\WINDOWS KITS\10\INCLUDE\10.0.16299.0\UCRT\CORECRT_SHARE.H
C:\PROGRAM FILES (X86)\WINDOWS KITS\10\INCLUDE\10.0.16299.0\UCRT\CORECRT_WPROCESS.H
C:\PROGRAM FILES (X86)\WINDOWS KITS\10\INCLUDE\10.0.16299.0\UCRT\SYS\STAT.H
C:\PROGRAM FILES (X86)\WINDOWS KITS\10\INCLUDE\10.0.16299.0\UCRT\SYS\TYPES.H
C:\PROGRAM FILES (X86)\MICROSOFT VISUAL STUDIO\2017\COMMUNITY\VC\TOOLS\MSVC\14.13.26128\INCLUDE\NEW
C:\PROGRAM FILES (X86)\MICROSOFT VISUAL STUDIO\2017\COMMUNITY\VC\TOOLS\MSVC\14.13.26128\INCLUDE\VCRUNTIME_NEW.H
C:\PROGRAM FILES (X86)\MICROSOFT VISUAL STUDIO\2017\COMMUNITY\VC\TOOLS\MSVC\14.13.26128\INCLUDE\XUTILITY
C:\PROGRAM FILES (X86)\MICROSOFT VISUAL STUDIO\2017\COMMUNITY\VC\TOOLS\MSVC\14.13.26128\INCLUDE\UTILITY
C:\PROGRAM FILES (X86)\MICROSOFT VISUAL STUDIO\2017\COMMUNITY\VC\TOOLS\MSVC\14.13.26128\INCLUDE\IOSFWD
C:\PROGRAM FILES (X86)\WINDOWS KITS\10\INCLUDE\10.0.16299.0\UCRT\CRTDBG.H
C:\PROGRAM FILES (X86)\MICROSOFT VISUAL STUDIO\2017\COMMUNITY\VC\TOOLS\MSVC\14.13.26128\INCLUDE\VCRUNTIME_NEW_DEBUG.H
C:\PROGRAM FILES (X86)\MICROSOFT VISUAL STUDIO\2017\COMMUNITY\VC\TOOLS\MSVC\14.13.26128\INCLUDE\XATOMIC0.H
C:\PROGRAM FILES (X86)\MICROSOFT VISUAL STUDIO\2017\COMMUNITY\VC\TOOLS\MSVC\14.13.26128\INCLUDE\INTRIN0.H
C:\PROGRAM FILES (X86)\MICROSOFT VISUAL STUDIO\2017\COMMUNITY\VC\TOOLS\MSVC\14.13.26128\INCLUDE\TYPEINFO
C:\PROGRAM FILES (X86)\MICROSOFT VISUAL STUDIO\2017\COMMUNITY\VC\TOOLS\MSVC\14.13.26128\INCLUDE\VCRUNTIME_TYPEINFO.H
C:\PROGRAM FILES (X86)\MICROSOFT VISUAL STUDIO\2017\COMMUNITY\VC\TOOLS\MSVC\14.13.26128\INCLUDE\XLOCINFO
C:\PROGRAM FILES (X86)\MICROSOFT VISUAL STUDIO\2017\COMMUNITY\VC\TOOLS\MSVC\14.13.26128\INCLUDE\XLOCINFO.H
C:\PROGRAM FILES (X86)\WINDOWS KITS\10\INCLUDE\10.0.16299.0\UCRT\CTYPE.H
C:\PROGRAM FILES (X86)\WINDOWS KITS\10\INCLUDE\10.0.16299.0\UCRT\LOCALE.H
C:\PROGRAM FILES (X86)\MICROSOFT VISUAL STUDIO\2017\COMMUNITY\VC\TOOLS\MSVC\14.13.26128\INCLUDE\XFACET
C:\PROGRAM FILES (X86)\MICROSOFT VISUAL STUDIO\2017\COMMUNITY\VC\TOOLS\MSVC\14.13.26128\INCLUDE\SYSTEM_ERROR
C:\PROGRAM FILES (X86)\MICROSOFT VISUAL STUDIO\2017\COMMUNITY\VC\TOOLS\MSVC\14.13.26128\INCLUDE\CERRNO
C:\PROGRAM FILES (X86)\MICROSOFT VISUAL STUDIO\2017\COMMUNITY\VC\TOOLS\MSVC\14.13.26128\INCLUDE\XCALL_ONCE.H
C:\PROGRAM FILES (X86)\WINDOWS KITS\10\INCLUDE\10.0.16299.0\UCRT\SHARE.H
C:\PROGRAM FILES (X86)\MICROSOFT VISUAL STUDIO\2017\COMMUNITY\VC\TOOLS\MSVC\14.13.26128\INCLUDE\XSTRING_INSERT.H
C:\PROGRAM FILES (X86)\MICROSOFT VISUAL STUDIO\2017\COMMUNITY\VC\TOOLS\MSVC\14.13.26128\INCLUDE\MAP
C:\PROGRAM FILES (X86)\MICROSOFT VISUAL STUDIO\2017\COMMUNITY\VC\TOOLS\MSVC\14.13.26128\INCLUDE\TUPLE
C:\PROGRAM FILES (X86)\MICROSOFT VISUAL STUDIO\2017\COMMUNITY\VC\TOOLS\MSVC\14.13.26128\INCLUDE\XTREE
C:\PROGRAM FILES (X86)\MICROSOFT VISUAL STUDIO\2017\COMMUNITY\VC\TOOLS\MSVC\14.13.26128\INCLUDE\XMEMORY
C:\PROGRAM FILES (X86)\MICROSOFT VISUAL STUDIO\2017\COMMUNITY\VC\TOOLS\MSVC\14.13.26128\INCLUDE\LIST
C:\PROGRAM FILES (X86)\WINDOWS KITS\10\INCLUDE\10.0.16299.0\UM\WINSOCK2.H
C:\PROGRAM FILES (X86)\WINDOWS KITS\10\INCLUDE\10.0.16299.0\SHARED\WINAPIFAMILY.H
C:\PROGRAM FILES (X86)\WINDOWS KITS\10\INCLUDE\10.0.16299.0\SHARED\WINPACKAGEFAMILY.H
C:\PROGRAM FILES (X86)\WINDOWS KITS\10\INCLUDE\10.0.16299.0\UM\WINDOWS.H
C:\PROGRAM FILES (X86)\WINDOWS KITS\10\INCLUDE\10.0.16299.0\SHARED\SDKDDKVER.H
C:\PROGRAM FILES (X86)\MICROSOFT VISUAL STUDIO\2017\COMMUNITY\VC\TOOLS\MSVC\14.13.26128\INCLUDE\EXCPT.H
C:\PROGRAM FILES (X86)\MICROSOFT VISUAL STUDIO\2017\COMMUNITY\VC\TOOLS\MSVC\14.13.26128\INCLUDE\STDARG.H
C:\PROGRAM FILES (X86)\WINDOWS KITS\10\INCLUDE\10.0.16299.0\SHARED\WINDEF.H
C:\PROGRAM FILES (X86)\WINDOWS KITS\10\INCLUDE\10.0.16299.0\SHARED\MINWINDEF.H
C:\PROGRAM FILES (X86)\WINDOWS KITS\10\INCLUDE\10.0.16299.0\SHARED\SPECSTRINGS.H
C:\PROGRAM FILES (X86)\WINDOWS KITS\10\INCLUDE\10.0.16299.0\SHARED\SPECSTRINGS_STRICT.H
C:\PROGRAM FILES (X86)\WINDOWS KITS\10\INCLUDE\10.0.16299.0\SHARED\SPECSTRINGS_UNDEF.H
C:\PROGRAM FILES (X86)\WINDOWS KITS\10\INCLUDE\10.0.16299.0\SHARED\DRIVERSPECS.H
C:\PROGRAM FILES (X86)\WINDOWS KITS\10\INCLUDE\10.0.16299.0\SHARED\SDV_DRIVERSPECS.H
C:\PROGRAM FILES (X86)\WINDOWS KITS\10\INCLUDE\10.0.16299.0\UM\WINNT.H
C:\PROGRAM FILES (X86)\WINDOWS KITS\10\INCLUDE\10.0.16299.0\SHARED\KERNELSPECS.H
C:\PROGRAM FILES (X86)\WINDOWS KITS\10\INCLUDE\10.0.16299.0\SHARED\BASETSD.H
C:\PROGRAM FILES (X86)\WINDOWS KITS\10\INCLUDE\10.0.16299.0\SHARED\GUIDDEF.H
C:\PROGRAM FILES (X86)\WINDOWS KITS\10\INCLUDE\10.0.16299.0\SHARED\PSHPACK4.H
C:\PROGRAM FILES (X86)\WINDOWS KITS\10\INCLUDE\10.0.16299.0\SHARED\POPPACK.H
C:\PROGRAM FILES (X86)\WINDOWS KITS\10\INCLUDE\10.0.16299.0\SHARED\PSHPACK2.H
C:\PROGRAM FILES (X86)\WINDOWS KITS\10\INCLUDE\10.0.16299.0\SHARED\PSHPACK8.H
C:\PROGRAM FILES (X86)\WINDOWS KITS\10\INCLUDE\10.0.16299.0\SHARED\PSHPACK1.H
C:\PROGRAM FILES (X86)\WINDOWS KITS\10\INCLUDE\10.0.16299.0\SHARED\APISET.H
C:\PROGRAM FILES (X86)\WINDOWS KITS\10\INCLUDE\10.0.16299.0\SHARED\KTMTYPES.H
C:\PROGRAM FILES (X86)\WINDOWS KITS\10\INCLUDE\10.0.16299.0\UM\WINBASE.H
C:\PROGRAM FILES (X86)\WINDOWS KITS\10\INCLUDE\10.0.16299.0\SHARED\APISETCCONV.H
C:\PROGRAM FILES (X86)\WINDOWS KITS\10\INCLUDE\10.0.16299.0\UM\MINWINBASE.H
C:\PROGRAM FILES (X86)\WINDOWS KITS\10\INCLUDE\10.0.16299.0\UM\PROCESSENV.H
C:\PROGRAM FILES (X86)\WINDOWS KITS\10\INCLUDE\10.0.16299.0\UM\FILEAPI.H
C:\PROGRAM FILES (X86)\WINDOWS KITS\10\INCLUDE\10.0.16299.0\UM\DEBUGAPI.H
C:\PROGRAM FILES (X86)\WINDOWS KITS\10\INCLUDE\10.0.16299.0\UM\UTILAPISET.H
C:\PROGRAM FILES (X86)\WINDOWS KITS\10\INCLUDE\10.0.16299.0\UM\HANDLEAPI.H
C:\PROGRAM FILES (X86)\WINDOWS KITS\10\INCLUDE\10.0.16299.0\UM\ERRHANDLINGAPI.H
C:\PROGRAM FILES (X86)\WINDOWS KITS\10\INCLUDE\10.0.16299.0\UM\FIBERSAPI.H
C:\PROGRAM FILES (X86)\WINDOWS KITS\10\INCLUDE\10.0.16299.0\UM\NAMEDPIPEAPI.H
C:\PROGRAM FILES (X86)\WINDOWS KITS\10\INCLUDE\10.0.16299.0\UM\PROFILEAPI.H
C:\PROGRAM FILES (X86)\WINDOWS KITS\10\INCLUDE\10.0.16299.0\UM\HEAPAPI.H
C:\PROGRAM FILES (X86)\WINDOWS KITS\10\INCLUDE\10.0.16299.0\UM\IOAPISET.H
C:\PROGRAM FILES (X86)\WINDOWS KITS\10\INCLUDE\10.0.16299.0\UM\SYNCHAPI.H
C:\PROGRAM FILES (X86)\WINDOWS KITS\10\INCLUDE\10.0.16299.0\UM\INTERLOCKEDAPI.H
C:\PROGRAM FILES (X86)\WINDOWS KITS\10\INCLUDE\10.0.16299.0\UM\PROCESSTHREADSAPI.H
C:\PROGRAM FILES (X86)\WINDOWS KITS\10\INCLUDE\10.0.16299.0\UM\SYSINFOAPI.H
C:\PROGRAM FILES (X86)\WINDOWS KITS\10\INCLUDE\10.0.16299.0\UM\MEMORYAPI.H
C:\PROGRAM FILES (X86)\WINDOWS KITS\10\INCLUDE\10.0.16299.0\UM\ENCLAVEAPI.H
C:\PROGRAM FILES (X86)\WINDOWS KITS\10\INCLUDE\10.0.16299.0\UM\THREADPOOLLEGACYAPISET.H
C:\PROGRAM FILES (X86)\WINDOWS KITS\10\INCLUDE\10.0.16299.0\UM\THREADPOOLAPISET.H
C:\PROGRAM FILES (X86)\WINDOWS KITS\10\INCLUDE\10.0.16299.0\UM\JOBAPI.H
C:\PROGRAM FILES (X86)\WINDOWS KITS\10\INCLUDE\10.0.16299.0\UM\JOBAPI2.H
C:\PROGRAM FILES (X86)\WINDOWS KITS\10\INCLUDE\10.0.16299.0\UM\WOW64APISET.H
C:\PROGRAM FILES (X86)\WINDOWS KITS\10\INCLUDE\10.0.16299.0\UM\LIBLOADERAPI.H
C:\PROGRAM FILES (X86)\WINDOWS KITS\10\INCLUDE\10.0.16299.0\UM\SECURITYBASEAPI.H
C:\PROGRAM FILES (X86)\WINDOWS KITS\10\INCLUDE\10.0.16299.0\UM\NAMESPACEAPI.H
C:\PROGRAM FILES (X86)\WINDOWS KITS\10\INCLUDE\10.0.16299.0\UM\SYSTEMTOPOLOGYAPI.H
C:\PROGRAM FILES (X86)\WINDOWS KITS\10\INCLUDE\10.0.16299.0\UM\PROCESSTOPOLOGYAPI.H
C:\PROGRAM FILES (X86)\WINDOWS KITS\10\INCLUDE\10.0.16299.0\UM\SECURITYAPPCONTAINER.H
C:\PROGRAM FILES (X86)\WINDOWS KITS\10\INCLUDE\10.0.16299.0\UM\REALTIMEAPISET.H
C:\PROGRAM FILES (X86)\WINDOWS KITS\10\INCLUDE\10.0.16299.0\SHARED\WINERROR.H
C:\PROGRAM FILES (X86)\WINDOWS KITS\10\INCLUDE\10.0.16299.0\UM\TIMEZONEAPI.H
C:\PROGRAM FILES (X86)\WINDOWS KITS\10\INCLUDE\10.0.16299.0\UM\WINGDI.H
C:\PROGRAM FILES (X86)\WINDOWS KITS\10\INCLUDE\10.0.16299.0\UM\WINUSER.H
C:\PROGRAM FILES (X86)\WINDOWS KITS\10\INCLUDE\10.0.16299.0\SHARED\TVOUT.H
C:\PROGRAM FILES (X86)\WINDOWS KITS\10\INCLUDE\10.0.16299.0\UM\WINNLS.H
C:\PROGRAM FILES (X86)\WINDOWS KITS\10\INCLUDE\10.0.16299.0\UM\DATETIMEAPI.H
C:\PROGRAM FILES (X86)\WINDOWS KITS\10\INCLUDE\10.0.16299.0\UM\STRINGAPISET.H
C:\PROGRAM FILES (X86)\WINDOWS KITS\10\INCLUDE\10.0.16299.0\UM\WINCON.H
C:\PROGRAM FILES (X86)\WINDOWS KITS\10\INCLUDE\10.0.16299.0\UM\CONSOLEAPI.H
C:\PROGRAM FILES (X86)\WINDOWS KITS\10\INCLUDE\10.0.16299.0\UM\WINVER.H
C:\PROGRAM FILES (X86)\WINDOWS KITS\10\INCLUDE\10.0.16299.0\UM\VERRSRC.H
C:\PROGRAM FILES (X86)\WINDOWS KITS\10\INCLUDE\10.0.16299.0\UM\WINREG.H
C:\PROGRAM FILES (X86)\WINDOWS KITS\10\INCLUDE\10.0.16299.0\UM\REASON.H
C:\PROGRAM FILES (X86)\WINDOWS KITS\10\INCLUDE\10.0.16299.0\UM\WINNETWK.H
C:\PROGRAM FILES (X86)\WINDOWS KITS\10\INCLUDE\10.0.16299.0\SHARED\WNNC.H
C:\PROGRAM FILES (X86)\WINDOWS KITS\10\INCLUDE\10.0.16299.0\SHARED\CDERR.H
C:\PROGRAM FILES (X86)\WINDOWS KITS\10\INCLUDE\10.0.16299.0\UM\DDE.H
C:\PROGRAM FILES (X86)\WINDOWS KITS\10\INCLUDE\10.0.16299.0\UM\DDEML.H
C:\PROGRAM FILES (X86)\WINDOWS KITS\10\INCLUDE\10.0.16299.0\UM\DLGS.H
C:\PROGRAM FILES (X86)\WINDOWS KITS\10\INCLUDE\10.0.16299.0\UM\LZEXPAND.H
C:\PROGRAM FILES (X86)\WINDOWS KITS\10\INCLUDE\10.0.16299.0\UM\MMSYSTEM.H
C:\PROGRAM FILES (X86)\WINDOWS KITS\10\INCLUDE\10.0.16299.0\UM\MMSYSCOM.H
C:\PROGRAM FILES (X86)\WINDOWS KITS\10\INCLUDE\10.0.16299.0\UM\MCIAPI.H
C:\PROGRAM FILES (X86)\WINDOWS KITS\10\INCLUDE\10.0.16299.0\UM\MMISCAPI.H
C:\PROGRAM FILES (X86)\WINDOWS KITS\10\INCLUDE\10.0.16299.0\UM\MMISCAPI2.H
C:\PROGRAM FILES (X86)\WINDOWS KITS\10\INCLUDE\10.0.16299.0\UM\PLAYSOUNDAPI.H
C:\PROGRAM FILES (X86)\WINDOWS KITS\10\INCLUDE\10.0.16299.0\UM\MMEAPI.H
C:\PROGRAM FILES (X86)\WINDOWS KITS\10\INCLUDE\10.0.16299.0\UM\TIMEAPI.H
C:\PROGRAM FILES (X86)\WINDOWS KITS\10\INCLUDE\10.0.16299.0\UM\JOYSTICKAPI.H
C:\PROGRAM FILES (X86)\WINDOWS KITS\10\INCLUDE\10.0.16299.0\UM\NB30.H
C:\PROGRAM FILES (X86)\WINDOWS KITS\10\INCLUDE\10.0.16299.0\SHARED\RPC.H
C:\PROGRAM FILES (X86)\WINDOWS KITS\10\INCLUDE\10.0.16299.0\SHARED\RPCDCE.H
C:\PROGRAM FILES (X86)\WINDOWS KITS\10\INCLUDE\10.0.16299.0\SHARED\RPCDCEP.H
C:\PROGRAM FILES (X86)\WINDOWS KITS\10\INCLUDE\10.0.16299.0\UM\RPCNSI.H
C:\PROGRAM FILES (X86)\WINDOWS KITS\10\INCLUDE\10.0.16299.0\SHARED\RPCNTERR.H
C:\PROGRAM FILES (X86)\WINDOWS KITS\10\INCLUDE\10.0.16299.0\SHARED\RPCASYNC.H
C:\PROGRAM FILES (X86)\WINDOWS KITS\10\INCLUDE\10.0.16299.0\UM\SHELLAPI.H
C:\PROGRAM FILES (X86)\WINDOWS KITS\10\INCLUDE\10.0.16299.0\UM\WINPERF.H
C:\PROGRAM FILES (X86)\WINDOWS KITS\10\INCLUDE\10.0.16299.0\UM\WINSOCK.H
C:\PROGRAM FILES (X86)\WINDOWS KITS\10\INCLUDE\10.0.16299.0\UM\WINCRYPT.H
C:\PROGRAM FILES (X86)\WINDOWS KITS\10\INCLUDE\10.0.16299.0\SHARED\BCRYPT.H
C:\PROGRAM FILES (X86)\WINDOWS KITS\10\INCLUDE\10.0.16299.0\UM\NCRYPT.H
C:\PROGRAM FILES (X86)\WINDOWS KITS\10\INCLUDE\10.0.16299.0\UM\DPAPI.H
C:\PROGRAM FILES (X86)\WINDOWS KITS\10\INCLUDE\10.0.16299.0\UM\WINEFS.H
C:\PROGRAM FILES (X86)\WINDOWS KITS\10\INCLUDE\10.0.16299.0\UM\WINSCARD.H
C:\PROGRAM FILES (X86)\WINDOWS KITS\10\INCLUDE\10.0.16299.0\SHARED\WTYPES.H
C:\PROGRAM FILES (X86)\WINDOWS KITS\10\INCLUDE\10.0.16299.0\SHARED\RPCNDR.H
C:\PROGRAM FILES (X86)\WINDOWS KITS\10\INCLUDE\10.0.16299.0\UM\RPCNSIP.H
C:\PROGRAM FILES (X86)\WINDOWS KITS\10\INCLUDE\10.0.16299.0\SHARED\RPCSAL.H
C:\PROGRAM FILES (X86)\WINDOWS KITS\10\INCLUDE\10.0.16299.0\SHARED\WTYPESBASE.H
C:\PROGRAM FILES (X86)\WINDOWS KITS\10\INCLUDE\10.0.16299.0\UM\WINIOCTL.H
C:\PROGRAM FILES (X86)\WINDOWS KITS\10\INCLUDE\10.0.16299.0\SHARED\WINSMCRD.H
C:\PROGRAM FILES (X86)\WINDOWS KITS\10\INCLUDE\10.0.16299.0\UM\WINSPOOL.H
C:\PROGRAM FILES (X86)\WINDOWS KITS\10\INCLUDE\10.0.16299.0\UM\PRSHT.H
C:\PROGRAM FILES (X86)\WINDOWS KITS\10\INCLUDE\10.0.16299.0\UM\OLE2.H
C:\PROGRAM FILES (X86)\WINDOWS KITS\10\INCLUDE\10.0.16299.0\UM\OBJBASE.H
C:\PROGRAM FILES (X86)\WINDOWS KITS\10\INCLUDE\10.0.16299.0\UM\COMBASEAPI.H
C:\PROGRAM FILES (X86)\WINDOWS KITS\10\INCLUDE\10.0.16299.0\UM\UNKNWNBASE.H
C:\PROGRAM FILES (X86)\WINDOWS KITS\10\INCLUDE\10.0.16299.0\UM\OBJIDLBASE.H
C:\PROGRAM FILES (X86)\WINDOWS KITS\10\INCLUDE\10.0.16299.0\UM\CGUID.H
C:\PROGRAM FILES (X86)\WINDOWS KITS\10\INCLUDE\10.0.16299.0\UM\COML2API.H
C:\PROGRAM FILES (X86)\WINDOWS KITS\10\INCLUDE\10.0.16299.0\UM\OBJIDL.H
C:\PROGRAM FILES (X86)\WINDOWS KITS\10\INCLUDE\10.0.16299.0\UM\UNKNWN.H
C:\PROGRAM FILES (X86)\WINDOWS KITS\10\INCLUDE\10.0.16299.0\UM\PROPIDLBASE.H
C:\PROGRAM FILES (X86)\WINDOWS KITS\10\INCLUDE\10.0.16299.0\UM\OAIDL.H
C:\PROGRAM FILES (X86)\WINDOWS KITS\10\INCLUDE\10.0.16299.0\UM\URLMON.H
C:\PROGRAM FILES (X86)\WINDOWS KITS\10\INCLUDE\10.0.16299.0\UM\OLEIDL.H
C:\PROGRAM FILES (X86)\WINDOWS KITS\10\INCLUDE\10.0.16299.0\UM\SERVPROV.H
C:\PROGRAM FILES (X86)\WINDOWS KITS\10\INCLUDE\10.0.16299.0\UM\MSXML.H
C:\PROGRAM FILES (X86)\WINDOWS KITS\10\INCLUDE\10.0.16299.0\UM\PROPIDL.H
C:\PROGRAM FILES (X86)\WINDOWS KITS\10\INCLUDE\10.0.16299.0\UM\OLEAUTO.H
C:\PROGRAM FILES (X86)\WINDOWS KITS\10\INCLUDE\10.0.16299.0\UM\COMMDLG.H
C:\PROGRAM FILES (X86)\WINDOWS KITS\10\INCLUDE\10.0.16299.0\SHARED\STRALIGN.H
C:\PROGRAM FILES (X86)\WINDOWS KITS\10\INCLUDE\10.0.16299.0\UM\WINSVC.H
C:\PROGRAM FILES (X86)\WINDOWS KITS\10\INCLUDE\10.0.16299.0\UM\MCX.H
C:\PROGRAM FILES (X86)\WINDOWS KITS\10\INCLUDE\10.0.16299.0\UM\IMM.H
C:\PROGRAM FILES (X86)\WINDOWS KITS\10\INCLUDE\10.0.16299.0\UM\IME_CMODES.H
C:\PROGRAM FILES (X86)\WINDOWS KITS\10\INCLUDE\10.0.16299.0\SHARED\WS2DEF.H
C:\PROGRAM FILES (X86)\WINDOWS KITS\10\INCLUDE\10.0.16299.0\SHARED\INADDR.H
C:\PROGRAM FILES (X86)\WINDOWS KITS\10\INCLUDE\10.0.16299.0\SHARED\QOS.H
D:\LAB\NESNE TABANLı PROGRAMLAMA\GUZPROJE\OOP_1PROJECT\OOP_1PROJECT\ARSERIALCONNECTION.H
D:\LAB\NESNE TABANLı PROGRAMLAMA\GUZPROJE\OOP_1PROJECT\OOP_1PROJECT\ARDEVICECONNECTION.H
D:\LAB\NESNE TABANLı PROGRAMLAMA\GUZPROJE\OOP_1PROJECT\OOP_1PROJECT\ARIAUTIL.H
C:\PROGRAM FILES (X86)\MICROSOFT VISUAL STUDIO\2017\COMMUNITY\VC\TOOLS\MSVC\14.13.26128\INCLUDE\VECTOR
C:\PROGRAM FILES (X86)\WINDOWS KITS\10\INCLUDE\10.0.16299.0\UCRT\SYS\TIMEB.H
D:\LAB\NESNE TABANLı PROGRAMLAMA\GUZPROJE\OOP_1PROJECT\OOP_1PROJECT\ARLOG.H
D:\LAB\NESNE TABANLı PROGRAMLAMA\GUZPROJE\OOP_1PROJECT\OOP_1PROJECT\ARMUTEX.H
D:\LAB\NESNE TABANLı PROGRAMLAMA\GUZPROJE\OOP_1PROJECT\OOP_1PROJECT\ARFUNCTOR.H
D:\LAB\NESNE TABANLı PROGRAMLAMA\GUZPROJE\OOP_1PROJECT\OOP_1PROJECT\ARARGUMENTPARSER.H
D:\LAB\NESNE TABANLı PROGRAMLAMA\GUZPROJE\OOP_1PROJECT\OOP_1PROJECT\ARARGUMENTBUILDER.H
D:\LAB\NESNE TABANLı PROGRAMLAMA\GUZPROJE\OOP_1PROJECT\OOP_1PROJECT\ARBASEPACKET.H
D:\LAB\NESNE TABANLı PROGRAMLAMA\GUZPROJE\OOP_1PROJECT\OOP_1PROJECT\ARTCPCONNECTION.H
D:\LAB\NESNE TABANLı PROGRAMLAMA\GUZPROJE\OOP_1PROJECT\OOP_1PROJECT\ARSOCKET.H
D:\LAB\NESNE TABANLı PROGRAMLAMA\GUZPROJE\OOP_1PROJECT\OOP_1PROJECT\ARSIMPLECONNECTOR.H
D:\LAB\NESNE TABANLı PROGRAMLAMA\GUZPROJE\OOP_1PROJECT\OOP_1PROJECT\ARROBOTCONNECTOR.H
D:\LAB\NESNE TABANLı PROGRAMLAMA\GUZPROJE\OOP_1PROJECT\OOP_1PROJECT\ARLASERCONNECTOR.H
D:\LAB\NESNE TABANLı PROGRAMLAMA\GUZPROJE\OOP_1PROJECT\OOP_1PROJECT\ARLOGFILECONNECTION.H
D:\LAB\NESNE TABANLı PROGRAMLAMA\GUZPROJE\OOP_1PROJECT\OOP_1PROJECT\ARROBOTPACKET.H
D:\LAB\NESNE TABANLı PROGRAMLAMA\GUZPROJE\OOP_1PROJECT\OOP_1PROJECT\ARROBOTPACKETSENDER.H
D:\LAB\NESNE TABANLı PROGRAMLAMA\GUZPROJE\OOP_1PROJECT\OOP_1PROJECT\ARROBOTPACKETRECEIVER.H
D:\LAB\NESNE TABANLı PROGRAMLAMA\GUZPROJE\OOP_1PROJECT\OOP_1PROJECT\ARROBOTCONFIGPACKETREADER.H
D:\LAB\NESNE TABANLı PROGRAMLAMA\GUZPROJE\OOP_1PROJECT\OOP_1PROJECT\ARROBOTTYPES.H
D:\LAB\NESNE TABANLı PROGRAMLAMA\GUZPROJE\OOP_1PROJECT\OOP_1PROJECT\ARROBOTPARAMS.H
D:\LAB\NESNE TABANLı PROGRAMLAMA\GUZPROJE\OOP_1PROJECT\OOP_1PROJECT\ARCONFIG.H
D:\LAB\NESNE TABANLı PROGRAMLAMA\GUZPROJE\OOP_1PROJECT\OOP_1PROJECT\ARCONFIGARG.H
D:\LAB\NESNE TABANLı PROGRAMLAMA\GUZPROJE\OOP_1PROJECT\OOP_1PROJECT\ARFILEPARSER.H
D:\LAB\NESNE TABANLı PROGRAMLAMA\GUZPROJE\OOP_1PROJECT\OOP_1PROJECT\ARHASFILENAME.H
C:\PROGRAM FILES (X86)\MICROSOFT VISUAL STUDIO\2017\COMMUNITY\VC\TOOLS\MSVC\14.13.26128\INCLUDE\SET
D:\LAB\NESNE TABANLı PROGRAMLAMA\GUZPROJE\OOP_1PROJECT\OOP_1PROJECT\ARCONFIGGROUP.H
D:\LAB\NESNE TABANLı PROGRAMLAMA\GUZPROJE\OOP_1PROJECT\OOP_1PROJECT\ARROBOT.H
D:\LAB\NESNE TABANLı PROGRAMLAMA\GUZPROJE\OOP_1PROJECT\OOP_1PROJECT\ARSYNCTASK.H
D:\LAB\NESNE TABANLı PROGRAMLAMA\GUZPROJE\OOP_1PROJECT\OOP_1PROJECT\ARTASKSTATE.H
D:\LAB\NESNE TABANLı PROGRAMLAMA\GUZPROJE\OOP_1PROJECT\OOP_1PROJECT\ARSENSORREADING.H
D:\LAB\NESNE TABANLı PROGRAMLAMA\GUZPROJE\OOP_1PROJECT\OOP_1PROJECT\ARTRANSFORM.H
D:\LAB\NESNE TABANLı PROGRAMLAMA\GUZPROJE\OOP_1PROJECT\OOP_1PROJECT\ARCONDITION.H
D:\LAB\NESNE TABANLı PROGRAMLAMA\GUZPROJE\OOP_1PROJECT\OOP_1PROJECT\ARSYNCLOOP.H
D:\LAB\NESNE TABANLı PROGRAMLAMA\GUZPROJE\OOP_1PROJECT\OOP_1PROJECT\ARASYNCTASK.H
D:\LAB\NESNE TABANLı PROGRAMLAMA\GUZPROJE\OOP_1PROJECT\OOP_1PROJECT\ARTHREAD.H
D:\LAB\NESNE TABANLı PROGRAMLAMA\GUZPROJE\OOP_1PROJECT\OOP_1PROJECT\ARROBOTPACKETREADERTHREAD.H
D:\LAB\NESNE TABANLı PROGRAMLAMA\GUZPROJE\OOP_1PROJECT\OOP_1PROJECT\ARACTIONDESIRED.H
D:\LAB\NESNE TABANLı PROGRAMLAMA\GUZPROJE\OOP_1PROJECT\OOP_1PROJECT\ARRESOLVER.H
D:\LAB\NESNE TABANLı PROGRAMLAMA\GUZPROJE\OOP_1PROJECT\OOP_1PROJECT\ARINTERPOLATION.H
D:\LAB\NESNE TABANLı PROGRAMLAMA\GUZPROJE\OOP_1PROJECT\OOP_1PROJECT\ARKEYHANDLER.H
D:\LAB\NESNE TABANLı PROGRAMLAMA\GUZPROJE\OOP_1PROJECT\OOP_1PROJECT\ARCOMMANDS.H
D:\LAB\NESNE TABANLı PROGRAMLAMA\GUZPROJE\OOP_1PROJECT\OOP_1PROJECT\ARJOYHANDLER.H
D:\LAB\NESNE TABANLı PROGRAMLAMA\GUZPROJE\OOP_1PROJECT\OOP_1PROJECT\ARIAINTERNAL.H
D:\LAB\NESNE TABANLı PROGRAMLAMA\GUZPROJE\OOP_1PROJECT\OOP_1PROJECT\ARSTRINGINFOGROUP.H
D:\LAB\NESNE TABANLı PROGRAMLAMA\GUZPROJE\OOP_1PROJECT\OOP_1PROJECT\ARSONARDEVICE.H
D:\LAB\NESNE TABANLı PROGRAMLAMA\GUZPROJE\OOP_1PROJECT\OOP_1PROJECT\ARRANGEDEVICE.H
D:\LAB\NESNE TABANLı PROGRAMLAMA\GUZPROJE\OOP_1PROJECT\OOP_1PROJECT\ARRANGEBUFFER.H
D:\LAB\NESNE TABANLı PROGRAMLAMA\GUZPROJE\OOP_1PROJECT\OOP_1PROJECT\ARDRAWINGDATA.H
D:\LAB\NESNE TABANLı PROGRAMLAMA\GUZPROJE\OOP_1PROJECT\OOP_1PROJECT\ARPRIORITYRESOLVER.H
D:\LAB\NESNE TABANLı PROGRAMLAMA\GUZPROJE\OOP_1PROJECT\OOP_1PROJECT\ARACTION.H
D:\LAB\NESNE TABANLı PROGRAMLAMA\GUZPROJE\OOP_1PROJECT\OOP_1PROJECT\ARARG.H
D:\LAB\NESNE TABANLı PROGRAMLAMA\GUZPROJE\OOP_1PROJECT\OOP_1PROJECT\ARACTIONGROUP.H
D:\LAB\NESNE TABANLı PROGRAMLAMA\GUZPROJE\OOP_1PROJECT\OOP_1PROJECT\ARACTIONGROUPS.H
D:\LAB\NESNE TABANLı PROGRAMLAMA\GUZPROJE\OOP_1PROJECT\OOP_1PROJECT\ARACTIONCOLORFOLLOW.H
D:\LAB\NESNE TABANLı PROGRAMLAMA\GUZPROJE\OOP_1PROJECT\OOP_1PROJECT\ARACTS.H
D:\LAB\NESNE TABANLı PROGRAMLAMA\GUZPROJE\OOP_1PROJECT\OOP_1PROJECT\ARPTZ.H
D:\LAB\NESNE TABANLı PROGRAMLAMA\GUZPROJE\OOP_1PROJECT\OOP_1PROJECT\ARPTZCONNECTOR.H
D:\LAB\NESNE TABANLı PROGRAMLAMA\GUZPROJE\OOP_1PROJECT\OOP_1PROJECT\ARACTIONDECELERATINGLIMITER.H
D:\LAB\NESNE TABANLı PROGRAMLAMA\GUZPROJE\OOP_1PROJECT\OOP_1PROJECT\ARACTIONLIMITERFORWARDS.H
D:\LAB\NESNE TABANLı PROGRAMLAMA\GUZPROJE\OOP_1PROJECT\OOP_1PROJECT\ARACTIONLIMITERBACKWARDS.H
D:\LAB\NESNE TABANLı PROGRAMLAMA\GUZPROJE\OOP_1PROJECT\OOP_1PROJECT\ARACTIONLIMITERTABLESENSOR.H
D:\LAB\NESNE TABANLı PROGRAMLAMA\GUZPROJE\OOP_1PROJECT\OOP_1PROJECT\ARACTIONBUMPERS.H
D:\LAB\NESNE TABANLı PROGRAMLAMA\GUZPROJE\OOP_1PROJECT\OOP_1PROJECT\ARACTIONIRS.H
D:\LAB\NESNE TABANLı PROGRAMLAMA\GUZPROJE\OOP_1PROJECT\OOP_1PROJECT\ARACTIONSTALLRECOVER.H
D:\LAB\NESNE TABANLı PROGRAMLAMA\GUZPROJE\OOP_1PROJECT\OOP_1PROJECT\ARACTIONAVOIDFRONT.H
D:\LAB\NESNE TABANLı PROGRAMLAMA\GUZPROJE\OOP_1PROJECT\OOP_1PROJECT\ARACTIONAVOIDSIDE.H
D:\LAB\NESNE TABANLı PROGRAMLAMA\GUZPROJE\OOP_1PROJECT\OOP_1PROJECT\ARACTIONCONSTANTVELOCITY.H
D:\LAB\NESNE TABANLı PROGRAMLAMA\GUZPROJE\OOP_1PROJECT\OOP_1PROJECT\ARACTIONINPUT.H
D:\LAB\NESNE TABANLı PROGRAMLAMA\GUZPROJE\OOP_1PROJECT\OOP_1PROJECT\ARACTIONROBOTJOYDRIVE.H
D:\LAB\NESNE TABANLı PROGRAMLAMA\GUZPROJE\OOP_1PROJECT\OOP_1PROJECT\ARACTIONJOYDRIVE.H
D:\LAB\NESNE TABANLı PROGRAMLAMA\GUZPROJE\OOP_1PROJECT\OOP_1PROJECT\ARACTIONKEYDRIVE.H
D:\LAB\NESNE TABANLı PROGRAMLAMA\GUZPROJE\OOP_1PROJECT\OOP_1PROJECT\ARACTIONTRIANGLEDRIVETO.H
D:\LAB\NESNE TABANLı PROGRAMLAMA\GUZPROJE\OOP_1PROJECT\OOP_1PROJECT\ARLINEFINDER.H
D:\LAB\NESNE TABANLı PROGRAMLAMA\GUZPROJE\OOP_1PROJECT\OOP_1PROJECT\ARACTIONTURN.H
D:\LAB\NESNE TABANLı PROGRAMLAMA\GUZPROJE\OOP_1PROJECT\OOP_1PROJECT\ARACTIONRATIOINPUT.H
D:\LAB\NESNE TABANLı PROGRAMLAMA\GUZPROJE\OOP_1PROJECT\OOP_1PROJECT\ARACTIONSTOP.H
D:\LAB\NESNE TABANLı PROGRAMLAMA\GUZPROJE\OOP_1PROJECT\OOP_1PROJECT\ARACTIONGOTO.H
D:\LAB\NESNE TABANLı PROGRAMLAMA\GUZPROJE\OOP_1PROJECT\OOP_1PROJECT\ARMODULE.H
D:\LAB\NESNE TABANLı PROGRAMLAMA\GUZPROJE\OOP_1PROJECT\OOP_1PROJECT\ARMODULELOADER.H
D:\LAB\NESNE TABANLı PROGRAMLAMA\GUZPROJE\OOP_1PROJECT\OOP_1PROJECT\ARRECURRENTTASK.H
D:\LAB\NESNE TABANLı PROGRAMLAMA\GUZPROJE\OOP_1PROJECT\OOP_1PROJECT\ARGRIPPER.H
D:\LAB\NESNE TABANLı PROGRAMLAMA\GUZPROJE\OOP_1PROJECT\OOP_1PROJECT\ARSONYPTZ.H
D:\LAB\NESNE TABANLı PROGRAMLAMA\GUZPROJE\OOP_1PROJECT\OOP_1PROJECT\ARRVISIONPTZ.H
D:\LAB\NESNE TABANLı PROGRAMLAMA\GUZPROJE\OOP_1PROJECT\OOP_1PROJECT\ARAMPTU.H
D:\LAB\NESNE TABANLı PROGRAMLAMA\GUZPROJE\OOP_1PROJECT\OOP_1PROJECT\ARP2ARM.H
D:\LAB\NESNE TABANLı PROGRAMLAMA\GUZPROJE\OOP_1PROJECT\OOP_1PROJECT\ARSICK.H
D:\LAB\NESNE TABANLı PROGRAMLAMA\GUZPROJE\OOP_1PROJECT\OOP_1PROJECT\ARLASER.H
D:\LAB\NESNE TABANLı PROGRAMLAMA\GUZPROJE\OOP_1PROJECT\OOP_1PROJECT\ARRANGEDEVICETHREADED.H
D:\LAB\NESNE TABANLı PROGRAMLAMA\GUZPROJE\OOP_1PROJECT\OOP_1PROJECT\ARFUNCTORASYNCTASK.H
D:\LAB\NESNE TABANLı PROGRAMLAMA\GUZPROJE\OOP_1PROJECT\OOP_1PROJECT\ARLMS2XX.H
D:\LAB\NESNE TABANLı PROGRAMLAMA\GUZPROJE\OOP_1PROJECT\OOP_1PROJECT\ARLMS2XXPACKET.H
D:\LAB\NESNE TABANLı PROGRAMLAMA\GUZPROJE\OOP_1PROJECT\OOP_1PROJECT\ARLMS2XXPACKETRECEIVER.H
D:\LAB\NESNE TABANLı PROGRAMLAMA\GUZPROJE\OOP_1PROJECT\OOP_1PROJECT\ARLASERLOGGER.H
D:\LAB\NESNE TABANLı PROGRAMLAMA\GUZPROJE\OOP_1PROJECT\OOP_1PROJECT\ARIRRFDEVICE.H
D:\LAB\NESNE TABANLı PROGRAMLAMA\GUZPROJE\OOP_1PROJECT\OOP_1PROJECT\ARDPPTU.H
D:\LAB\NESNE TABANLı PROGRAMLAMA\GUZPROJE\OOP_1PROJECT\OOP_1PROJECT\ARVCC4.H
D:\LAB\NESNE TABANLı PROGRAMLAMA\GUZPROJE\OOP_1PROJECT\OOP_1PROJECT\ARMODE.H
D:\LAB\NESNE TABANLı PROGRAMLAMA\GUZPROJE\OOP_1PROJECT\OOP_1PROJECT\ARMODES.H
D:\LAB\NESNE TABANLı PROGRAMLAMA\GUZPROJE\OOP_1PROJECT\OOP_1PROJECT\ARTCMCOMPASSROBOT.H
D:\LAB\NESNE TABANLı PROGRAMLAMA\GUZPROJE\OOP_1PROJECT\OOP_1PROJECT\ARTCM2.H
D:\LAB\NESNE TABANLı PROGRAMLAMA\GUZPROJE\OOP_1PROJECT\OOP_1PROJECT\ARNETSERVER.H
D:\LAB\NESNE TABANLı PROGRAMLAMA\GUZPROJE\OOP_1PROJECT\OOP_1PROJECT\ARSIGNALHANDLER.H
D:\LAB\NESNE TABANLı PROGRAMLAMA\GUZPROJE\OOP_1PROJECT\OOP_1PROJECT\ARANALOGGYRO.H
D:\LAB\NESNE TABANLı PROGRAMLAMA\GUZPROJE\OOP_1PROJECT\OOP_1PROJECT\ARMAPINTERFACE.H
D:\LAB\NESNE TABANLı PROGRAMLAMA\GUZPROJE\OOP_1PROJECT\OOP_1PROJECT\ARMAPOBJECT.H
D:\LAB\NESNE TABANLı PROGRAMLAMA\GUZPROJE\OOP_1PROJECT\OOP_1PROJECT\ARMAPUTILS.H
C:\PROGRAM FILES (X86)\MICROSOFT VISUAL STUDIO\2017\COMMUNITY\VC\TOOLS\MSVC\14.13.26128\INCLUDE\ALGORITHM
C:\PROGRAM FILES (X86)\MICROSOFT VISUAL STUDIO\2017\COMMUNITY\VC\TOOLS\MSVC\14.13.26128\INCLUDE\FUNCTIONAL
C:\PROGRAM FILES (X86)\MICROSOFT VISUAL STUDIO\2017\COMMUNITY\VC\TOOLS\MSVC\14.13.26128\INCLUDE\XFUNCTIONAL
D:\LAB\NESNE TABANLı PROGRAMLAMA\GUZPROJE\OOP_1PROJECT\OOP_1PROJECT\ARMAP.H
D:\LAB\NESNE TABANLı PROGRAMLAMA\GUZPROJE\OOP_1PROJECT\OOP_1PROJECT\ARMAPCOMPONENTS.H
D:\LAB\NESNE TABANLı PROGRAMLAMA\GUZPROJE\OOP_1PROJECT\OOP_1PROJECT\ARGPSCOORDS.H
D:\LAB\NESNE TABANLı PROGRAMLAMA\GUZPROJE\OOP_1PROJECT\OOP_1PROJECT\ARBUMPERS.H
D:\LAB\NESNE TABANLı PROGRAMLAMA\GUZPROJE\OOP_1PROJECT\OOP_1PROJECT\ARIRS.H
D:\LAB\NESNE TABANLı PROGRAMLAMA\GUZPROJE\OOP_1PROJECT\OOP_1PROJECT\ARFORBIDDENRANGEDEVICE.H
D:\LAB\NESNE TABANLı PROGRAMLAMA\GUZPROJE\OOP_1PROJECT\OOP_1PROJECT\ARACTIONGOTOSTRAIGHT.H
D:\LAB\NESNE TABANLı PROGRAMLAMA\GUZPROJE\OOP_1PROJECT\OOP_1PROJECT\ARDATALOGGER.H
D:\LAB\NESNE TABANLı PROGRAMLAMA\GUZPROJE\OOP_1PROJECT\OOP_1PROJECT\ARROBOTJOYHANDLER.H
D:\LAB\NESNE TABANLı PROGRAMLAMA\GUZPROJE\OOP_1PROJECT\OOP_1PROJECT\ARRATIOINPUTKEYDRIVE.H
D:\LAB\NESNE TABANLı PROGRAMLAMA\GUZPROJE\OOP_1PROJECT\OOP_1PROJECT\ARRATIOINPUTJOYDRIVE.H
D:\LAB\NESNE TABANLı PROGRAMLAMA\GUZPROJE\OOP_1PROJECT\OOP_1PROJECT\ARRATIOINPUTROBOTJOYDRIVE.H
D:\LAB\NESNE TABANLı PROGRAMLAMA\GUZPROJE\OOP_1PROJECT\OOP_1PROJECT\ARACTIONMOVEMENTPARAMETERS.H
D:\LAB\NESNE TABANLı PROGRAMLAMA\GUZPROJE\OOP_1PROJECT\OOP_1PROJECT\ARSOUNDPLAYER.H
D:\LAB\NESNE TABANLı PROGRAMLAMA\GUZPROJE\OOP_1PROJECT\OOP_1PROJECT\ARSOUNDSQUEUE.H
D:\LAB\NESNE TABANLı PROGRAMLAMA\GUZPROJE\OOP_1PROJECT\OOP_1PROJECT\ARSPEECH.H
D:\LAB\NESNE TABANLı PROGRAMLAMA\GUZPROJE\OOP_1PROJECT\OOP_1PROJECT\ARCAMERACOLLECTION.H
D:\LAB\NESNE TABANLı PROGRAMLAMA\GUZPROJE\OOP_1PROJECT\OOP_1PROJECT\ARCAMERACOMMANDS.H
D:\LAB\NESNE TABANLı PROGRAMLAMA\GUZPROJE\OOP_1PROJECT\OOP_1PROJECT\ARSONARAUTODISABLER.H
D:\LAB\NESNE TABANLı PROGRAMLAMA\GUZPROJE\OOP_1PROJECT\OOP_1PROJECT\ARACTIONDRIVEDISTANCE.H
D:\LAB\NESNE TABANLı PROGRAMLAMA\GUZPROJE\OOP_1PROJECT\OOP_1PROJECT\ARLASERREFLECTORDEVICE.H
D:\LAB\NESNE TABANLı PROGRAMLAMA\GUZPROJE\OOP_1PROJECT\OOP_1PROJECT\ARROBOTCONFIG.H
D:\LAB\NESNE TABANLı PROGRAMLAMA\GUZPROJE\OOP_1PROJECT\OOP_1PROJECT\ARTCMCOMPASSDIRECT.H
D:\LAB\NESNE TABANLı PROGRAMLAMA\GUZPROJE\OOP_1PROJECT\OOP_1PROJECT\ARNMEAPARSER.H
D:\LAB\NESNE TABANLı PROGRAMLAMA\GUZPROJE\OOP_1PROJECT\OOP_1PROJECT\ARLASERFILTER.H
D:\LAB\NESNE TABANLı PROGRAMLAMA\GUZPROJE\OOP_1PROJECT\OOP_1PROJECT\ARURG.H
D:\LAB\NESNE TABANLı PROGRAMLAMA\GUZPROJE\OOP_1PROJECT\OOP_1PROJECT\ARGPS.H
D:\LAB\NESNE TABANLı PROGRAMLAMA\GUZPROJE\OOP_1PROJECT\OOP_1PROJECT\ARTRIMBLEGPS.H
C:\PROGRAM FILES (X86)\MICROSOFT VISUAL STUDIO\2017\COMMUNITY\VC\TOOLS\MSVC\14.13.26128\INCLUDE\DEQUE
D:\LAB\NESNE TABANLı PROGRAMLAMA\GUZPROJE\OOP_1PROJECT\OOP_1PROJECT\ARNOVATELGPS.H
D:\LAB\NESNE TABANLı PROGRAMLAMA\GUZPROJE\OOP_1PROJECT\OOP_1PROJECT\ARSONARCONNECTOR.H
D:\LAB\NESNE TABANLı PROGRAMLAMA\GUZPROJE\OOP_1PROJECT\OOP_1PROJECT\ARBATTERYCONNECTOR.H
D:\LAB\NESNE TABANLı PROGRAMLAMA\GUZPROJE\OOP_1PROJECT\OOP_1PROJECT\ARLCDCONNECTOR.H
D:\LAB\NESNE TABANLı PROGRAMLAMA\GUZPROJE\OOP_1PROJECT\OOP_1PROJECT\ARSONARMTX.H
D:\LAB\NESNE TABANLı PROGRAMLAMA\GUZPROJE\OOP_1PROJECT\OOP_1PROJECT\ARBATTERYMTX.H
D:\LAB\NESNE TABANLı PROGRAMLAMA\GUZPROJE\OOP_1PROJECT\OOP_1PROJECT\ARLCDMTX.H
D:\LAB\NESNE TABANLı PROGRAMLAMA\GUZPROJE\OOP_1PROJECT\OOP_1PROJECT\ARSIMULATEDLASER.H
D:\LAB\NESNE TABANLı PROGRAMLAMA\GUZPROJE\OOP_1PROJECT\OOP_1PROJECT\AREXITERRORSOURCE.H
D:\LAB\NESNE TABANLı PROGRAMLAMA\GUZPROJE\OOP_1PROJECT\OOP_1PROJECT\ARACTIONLIMITERROT.H
D:\LAB\NESNE TABANLı PROGRAMLAMA\GUZPROJE\OOP_1PROJECT\OOP_1PROJECT\ARROBOTBATTERYPACKETREADER.H
D:\LAB\NESNE TABANLı PROGRAMLAMA\GUZPROJE\OOP_1PROJECT\OOP_1PROJECT\ARLMS1XX.H
D:\LAB\NESNE TABANLı PROGRAMLAMA\GUZPROJE\OOP_1PROJECT\OOP_1PROJECT\ARURG_2_0.H
D:\LAB\NESNE TABANLı PROGRAMLAMA\GUZPROJE\OOP_1PROJECT\OOP_1PROJECT\ARACTIONMOVEMENTPARAMETERSDEBUGGING.H
D:\LAB\NESNE TABANLı PROGRAMLAMA\GUZPROJE\OOP_1PROJECT\OOP_1PROJECT\ARZIPPABLE.H
D:\LAB\NESNE TABANLı PROGRAMLAMA\GUZPROJE\OOP_1PROJECT\OOP_1PROJECT\ARS3SERIES.H
D:\LAB\NESNE TABANLı PROGRAMLAMA\GUZPROJE\OOP_1PROJECT\OOP_1PROJECT\ARSZSERIES.H
C:\PROGRAM FILES (X86)\MICROSOFT VISUAL STUDIO\2017\COMMUNITY\VC\TOOLS\MSVC\14.13.26128\INCLUDE\IOSTREAM
^C:\USERS\HAKAN\DESKTOP\OOP_1PROJECT\OOP_1PROJECT\POSE.CPP
C:\USERS\HAKAN\DESKTOP\OOP_1PROJECT\OOP_1PROJECT\POSE.H
C:\PROGRAM FILES (X86)\WINDOWS KITS\10\INCLUDE\10.0.16299.0\UCRT\MATH.H
C:\PROGRAM FILES (X86)\WINDOWS KITS\10\INCLUDE\10.0.16299.0\UCRT\CORECRT_MATH.H
C:\PROGRAM FILES (X86)\WINDOWS KITS\10\INCLUDE\10.0.16299.0\UCRT\CORECRT.H
C:\PROGRAM FILES (X86)\MICROSOFT VISUAL STUDIO\2017\COMMUNITY\VC\TOOLS\MSVC\14.13.26128\INCLUDE\VCRUNTIME.H
C:\PROGRAM FILES (X86)\MICROSOFT VISUAL STUDIO\2017\COMMUNITY\VC\TOOLS\MSVC\14.13.26128\INCLUDE\SAL.H
C:\PROGRAM FILES (X86)\MICROSOFT VISUAL STUDIO\2017\COMMUNITY\VC\TOOLS\MSVC\14.13.26128\INCLUDE\CONCURRENCYSAL.H
C:\PROGRAM FILES (X86)\MICROSOFT VISUAL STUDIO\2017\COMMUNITY\VC\TOOLS\MSVC\14.13.26128\INCLUDE\VADEFS.H
^C:\USERS\HAKAN\DESKTOP\OOP_1PROJECT\OOP_1PROJECT\ROBOTAPITEST.CPP
C:\USERS\HAKAN\DESKTOP\OOP_1PROJECT\OOP_1PROJECT\PIONEERROBOTAPI.H
C:\USERS\HAKAN\DESKTOP\OOP_1PROJECT\OOP_1PROJECT\ARIA.H
C:\USERS\HAKAN\DESKTOP\OOP_1PROJECT\OOP_1PROJECT\ARIAOSDEF.H
C:\USERS\HAKAN\DESKTOP\OOP_1PROJECT\OOP_1PROJECT\ARIATYPEDEFS.H
C:\PROGRAM FILES (X86)\WINDOWS KITS\10\INCLUDE\10.0.16299.0\UCRT\TIME.H
C:\PROGRAM FILES (X86)\WINDOWS KITS\10\INCLUDE\10.0.16299.0\UCRT\CORECRT.H
C:\PROGRAM FILES (X86)\MICROSOFT VISUAL STUDIO\2017\COMMUNITY\VC\TOOLS\MSVC\14.13.26128\INCLUDE\VCRUNTIME.H
C:\PROGRAM FILES (X86)\MICROSOFT VISUAL STUDIO\2017\COMMUNITY\VC\TOOLS\MSVC\14.13.26128\INCLUDE\SAL.H
C:\PROGRAM FILES (X86)\MICROSOFT VISUAL STUDIO\2017\COMMUNITY\VC\TOOLS\MSVC\14.13.26128\INCLUDE\CONCURRENCYSAL.H
C:\PROGRAM FILES (X86)\MICROSOFT VISUAL STUDIO\2017\COMMUNITY\VC\TOOLS\MSVC\14.13.26128\INCLUDE\VADEFS.H
C:\PROGRAM FILES (X86)\WINDOWS KITS\10\INCLUDE\10.0.16299.0\UCRT\CORECRT_WTIME.H
C:\PROGRAM FILES (X86)\MICROSOFT VISUAL STUDIO\2017\COMMUNITY\VC\TOOLS\MSVC\14.13.26128\INCLUDE\STRING
C:\PROGRAM FILES (X86)\MICROSOFT VISUAL STUDIO\2017\COMMUNITY\VC\TOOLS\MSVC\14.13.26128\INCLUDE\ISTREAM
C:\PROGRAM FILES (X86)\MICROSOFT VISUAL STUDIO\2017\COMMUNITY\VC\TOOLS\MSVC\14.13.26128\INCLUDE\OSTREAM
C:\PROGRAM FILES (X86)\MICROSOFT VISUAL STUDIO\2017\COMMUNITY\VC\TOOLS\MSVC\14.13.26128\INCLUDE\IOS
C:\PROGRAM FILES (X86)\MICROSOFT VISUAL STUDIO\2017\COMMUNITY\VC\TOOLS\MSVC\14.13.26128\INCLUDE\XLOCNUM
C:\PROGRAM FILES (X86)\MICROSOFT VISUAL STUDIO\2017\COMMUNITY\VC\TOOLS\MSVC\14.13.26128\INCLUDE\CLIMITS
C:\PROGRAM FILES (X86)\MICROSOFT VISUAL STUDIO\2017\COMMUNITY\VC\TOOLS\MSVC\14.13.26128\INCLUDE\YVALS.H
C:\PROGRAM FILES (X86)\MICROSOFT VISUAL STUDIO\2017\COMMUNITY\VC\TOOLS\MSVC\14.13.26128\INCLUDE\XKEYCHECK.H
C:\PROGRAM FILES (X86)\MICROSOFT VISUAL STUDIO\2017\COMMUNITY\VC\TOOLS\MSVC\14.13.26128\INCLUDE\CRTDEFS.H
C:\PROGRAM FILES (X86)\MICROSOFT VISUAL STUDIO\2017\COMMUNITY\VC\TOOLS\MSVC\14.13.26128\INCLUDE\USE_ANSI.H
C:\PROGRAM FILES (X86)\MICROSOFT VISUAL STUDIO\2017\COMMUNITY\VC\TOOLS\MSVC\14.13.26128\INCLUDE\LIMITS.H
C:\PROGRAM FILES (X86)\MICROSOFT VISUAL STUDIO\2017\COMMUNITY\VC\TOOLS\MSVC\14.13.26128\INCLUDE\CMATH
C:\PROGRAM FILES (X86)\MICROSOFT VISUAL STUDIO\2017\COMMUNITY\VC\TOOLS\MSVC\14.13.26128\INCLUDE\CSTDLIB
C:\PROGRAM FILES (X86)\WINDOWS KITS\10\INCLUDE\10.0.16299.0\UCRT\STDLIB.H
C:\PROGRAM FILES (X86)\WINDOWS KITS\10\INCLUDE\10.0.16299.0\UCRT\CORECRT_MALLOC.H
C:\PROGRAM FILES (X86)\WINDOWS KITS\10\INCLUDE\10.0.16299.0\UCRT\CORECRT_SEARCH.H
C:\PROGRAM FILES (X86)\WINDOWS KITS\10\INCLUDE\10.0.16299.0\UCRT\STDDEF.H
C:\PROGRAM FILES (X86)\WINDOWS KITS\10\INCLUDE\10.0.16299.0\UCRT\CORECRT_WSTDLIB.H
C:\PROGRAM FILES (X86)\WINDOWS KITS\10\INCLUDE\10.0.16299.0\UCRT\MATH.H
C:\PROGRAM FILES (X86)\WINDOWS KITS\10\INCLUDE\10.0.16299.0\UCRT\CORECRT_MATH.H
C:\PROGRAM FILES (X86)\MICROSOFT VISUAL STUDIO\2017\COMMUNITY\VC\TOOLS\MSVC\14.13.26128\INCLUDE\XTGMATH.H
C:\PROGRAM FILES (X86)\MICROSOFT VISUAL STUDIO\2017\COMMUNITY\VC\TOOLS\MSVC\14.13.26128\INCLUDE\XTR1COMMON
C:\PROGRAM FILES (X86)\MICROSOFT VISUAL STUDIO\2017\COMMUNITY\VC\TOOLS\MSVC\14.13.26128\INCLUDE\CSTDIO
C:\PROGRAM FILES (X86)\WINDOWS KITS\10\INCLUDE\10.0.16299.0\UCRT\STDIO.H
C:\PROGRAM FILES (X86)\WINDOWS KITS\10\INCLUDE\10.0.16299.0\UCRT\CORECRT_WSTDIO.H
C:\PROGRAM FILES (X86)\WINDOWS KITS\10\INCLUDE\10.0.16299.0\UCRT\CORECRT_STDIO_CONFIG.H
C:\PROGRAM FILES (X86)\MICROSOFT VISUAL STUDIO\2017\COMMUNITY\VC\TOOLS\MSVC\14.13.26128\INCLUDE\STREAMBUF
C:\PROGRAM FILES (X86)\MICROSOFT VISUAL STUDIO\2017\COMMUNITY\VC\TOOLS\MSVC\14.13.26128\INCLUDE\XIOSBASE
C:\PROGRAM FILES (X86)\MICROSOFT VISUAL STUDIO\2017\COMMUNITY\VC\TOOLS\MSVC\14.13.26128\INCLUDE\XLOCALE
C:\PROGRAM FILES (X86)\MICROSOFT VISUAL STUDIO\2017\COMMUNITY\VC\TOOLS\MSVC\14.13.26128\INCLUDE\CSTRING
C:\PROGRAM FILES (X86)\WINDOWS KITS\10\INCLUDE\10.0.16299.0\UCRT\STRING.H
C:\PROGRAM FILES (X86)\WINDOWS KITS\10\INCLUDE\10.0.16299.0\UCRT\CORECRT_MEMORY.H
C:\PROGRAM FILES (X86)\WINDOWS KITS\10\INCLUDE\10.0.16299.0\UCRT\CORECRT_MEMCPY_S.H
C:\PROGRAM FILES (X86)\WINDOWS KITS\10\INCLUDE\10.0.16299.0\UCRT\ERRNO.H
C:\PROGRAM FILES (X86)\MICROSOFT VISUAL STUDIO\2017\COMMUNITY\VC\TOOLS\MSVC\14.13.26128\INCLUDE\VCRUNTIME_STRING.H
C:\PROGRAM FILES (X86)\WINDOWS KITS\10\INCLUDE\10.0.16299.0\UCRT\CORECRT_WSTRING.H
C:\PROGRAM FILES (X86)\MICROSOFT VISUAL STUDIO\2017\COMMUNITY\VC\TOOLS\MSVC\14.13.26128\INCLUDE\STDEXCEPT
C:\PROGRAM FILES (X86)\MICROSOFT VISUAL STUDIO\2017\COMMUNITY\VC\TOOLS\MSVC\14.13.26128\INCLUDE\EXCEPTION
C:\PROGRAM FILES (X86)\MICROSOFT VISUAL STUDIO\2017\COMMUNITY\VC\TOOLS\MSVC\14.13.26128\INCLUDE\TYPE_TRAITS
C:\PROGRAM FILES (X86)\MICROSOFT VISUAL STUDIO\2017\COMMUNITY\VC\TOOLS\MSVC\14.13.26128\INCLUDE\XSTDDEF
C:\PROGRAM FILES (X86)\MICROSOFT VISUAL STUDIO\2017\COMMUNITY\VC\TOOLS\MSVC\14.13.26128\INCLUDE\CSTDDEF
C:\PROGRAM FILES (X86)\MICROSOFT VISUAL STUDIO\2017\COMMUNITY\VC\TOOLS\MSVC\14.13.26128\INCLUDE\INITIALIZER_LIST
C:\PROGRAM FILES (X86)\WINDOWS KITS\10\INCLUDE\10.0.16299.0\UCRT\MALLOC.H
C:\PROGRAM FILES (X86)\MICROSOFT VISUAL STUDIO\2017\COMMUNITY\VC\TOOLS\MSVC\14.13.26128\INCLUDE\VCRUNTIME_EXCEPTION.H
C:\PROGRAM FILES (X86)\MICROSOFT VISUAL STUDIO\2017\COMMUNITY\VC\TOOLS\MSVC\14.13.26128\INCLUDE\EH.H
C:\PROGRAM FILES (X86)\WINDOWS KITS\10\INCLUDE\10.0.16299.0\UCRT\CORECRT_TERMINATE.H
C:\PROGRAM FILES (X86)\MICROSOFT VISUAL STUDIO\2017\COMMUNITY\VC\TOOLS\MSVC\14.13.26128\INCLUDE\XSTRING
C:\PROGRAM FILES (X86)\MICROSOFT VISUAL STUDIO\2017\COMMUNITY\VC\TOOLS\MSVC\14.13.26128\INCLUDE\XMEMORY0
C:\PROGRAM FILES (X86)\MICROSOFT VISUAL STUDIO\2017\COMMUNITY\VC\TOOLS\MSVC\14.13.26128\INCLUDE\CSTDINT
C:\PROGRAM FILES (X86)\MICROSOFT VISUAL STUDIO\2017\COMMUNITY\VC\TOOLS\MSVC\14.13.26128\INCLUDE\STDINT.H
C:\PROGRAM FILES (X86)\MICROSOFT VISUAL STUDIO\2017\COMMUNITY\VC\TOOLS\MSVC\14.13.26128\INCLUDE\LIMITS
C:\PROGRAM FILES (X86)\MICROSOFT VISUAL STUDIO\2017\COMMUNITY\VC\TOOLS\MSVC\14.13.26128\INCLUDE\YMATH.H
C:\PROGRAM FILES (X86)\MICROSOFT VISUAL STUDIO\2017\COMMUNITY\VC\TOOLS\MSVC\14.13.26128\INCLUDE\CFLOAT
C:\PROGRAM FILES (X86)\WINDOWS KITS\10\INCLUDE\10.0.16299.0\UCRT\FLOAT.H
C:\PROGRAM FILES (X86)\MICROSOFT VISUAL STUDIO\2017\COMMUNITY\VC\TOOLS\MSVC\14.13.26128\INCLUDE\CWCHAR
C:\PROGRAM FILES (X86)\WINDOWS KITS\10\INCLUDE\10.0.16299.0\UCRT\WCHAR.H
C:\PROGRAM FILES (X86)\WINDOWS KITS\10\INCLUDE\10.0.16299.0\UCRT\CORECRT_WCONIO.H
C:\PROGRAM FILES (X86)\WINDOWS KITS\10\INCLUDE\10.0.16299.0\UCRT\CORECRT_WCTYPE.H
C:\PROGRAM FILES (X86)\WINDOWS KITS\10\INCLUDE\10.0.16299.0\UCRT\CORECRT_WDIRECT.H
C:\PROGRAM FILES (X86)\WINDOWS KITS\10\INCLUDE\10.0.16299.0\UCRT\CORECRT_WIO.H
C:\PROGRAM FILES (X86)\WINDOWS KITS\10\INCLUDE\10.0.16299.0\UCRT\CORECRT_SHARE.H
C:\PROGRAM FILES (X86)\WINDOWS KITS\10\INCLUDE\10.0.16299.0\UCRT\CORECRT_WPROCESS.H
C:\PROGRAM FILES (X86)\WINDOWS KITS\10\INCLUDE\10.0.16299.0\UCRT\SYS\STAT.H
C:\PROGRAM FILES (X86)\WINDOWS KITS\10\INCLUDE\10.0.16299.0\UCRT\SYS\TYPES.H
C:\PROGRAM FILES (X86)\MICROSOFT VISUAL STUDIO\2017\COMMUNITY\VC\TOOLS\MSVC\14.13.26128\INCLUDE\NEW
C:\PROGRAM FILES (X86)\MICROSOFT VISUAL STUDIO\2017\COMMUNITY\VC\TOOLS\MSVC\14.13.26128\INCLUDE\VCRUNTIME_NEW.H
C:\PROGRAM FILES (X86)\MICROSOFT VISUAL STUDIO\2017\COMMUNITY\VC\TOOLS\MSVC\14.13.26128\INCLUDE\XUTILITY
C:\PROGRAM FILES (X86)\MICROSOFT VISUAL STUDIO\2017\COMMUNITY\VC\TOOLS\MSVC\14.13.26128\INCLUDE\UTILITY
C:\PROGRAM FILES (X86)\MICROSOFT VISUAL STUDIO\2017\COMMUNITY\VC\TOOLS\MSVC\14.13.26128\INCLUDE\IOSFWD
C:\PROGRAM FILES (X86)\WINDOWS KITS\10\INCLUDE\10.0.16299.0\UCRT\CRTDBG.H
C:\PROGRAM FILES (X86)\MICROSOFT VISUAL STUDIO\2017\COMMUNITY\VC\TOOLS\MSVC\14.13.26128\INCLUDE\VCRUNTIME_NEW_DEBUG.H
C:\PROGRAM FILES (X86)\MICROSOFT VISUAL STUDIO\2017\COMMUNITY\VC\TOOLS\MSVC\14.13.26128\INCLUDE\XATOMIC0.H
C:\PROGRAM FILES (X86)\MICROSOFT VISUAL STUDIO\2017\COMMUNITY\VC\TOOLS\MSVC\14.13.26128\INCLUDE\INTRIN0.H
C:\PROGRAM FILES (X86)\MICROSOFT VISUAL STUDIO\2017\COMMUNITY\VC\TOOLS\MSVC\14.13.26128\INCLUDE\TYPEINFO
C:\PROGRAM FILES (X86)\MICROSOFT VISUAL STUDIO\2017\COMMUNITY\VC\TOOLS\MSVC\14.13.26128\INCLUDE\VCRUNTIME_TYPEINFO.H
C:\PROGRAM FILES (X86)\MICROSOFT VISUAL STUDIO\2017\COMMUNITY\VC\TOOLS\MSVC\14.13.26128\INCLUDE\XLOCINFO
C:\PROGRAM FILES (X86)\MICROSOFT VISUAL STUDIO\2017\COMMUNITY\VC\TOOLS\MSVC\14.13.26128\INCLUDE\XLOCINFO.H
C:\PROGRAM FILES (X86)\WINDOWS KITS\10\INCLUDE\10.0.16299.0\UCRT\CTYPE.H
C:\PROGRAM FILES (X86)\WINDOWS KITS\10\INCLUDE\10.0.16299.0\UCRT\LOCALE.H
C:\PROGRAM FILES (X86)\MICROSOFT VISUAL STUDIO\2017\COMMUNITY\VC\TOOLS\MSVC\14.13.26128\INCLUDE\XFACET
C:\PROGRAM FILES (X86)\MICROSOFT VISUAL STUDIO\2017\COMMUNITY\VC\TOOLS\MSVC\14.13.26128\INCLUDE\SYSTEM_ERROR
C:\PROGRAM FILES (X86)\MICROSOFT VISUAL STUDIO\2017\COMMUNITY\VC\TOOLS\MSVC\14.13.26128\INCLUDE\CERRNO
C:\PROGRAM FILES (X86)\MICROSOFT VISUAL STUDIO\2017\COMMUNITY\VC\TOOLS\MSVC\14.13.26128\INCLUDE\XCALL_ONCE.H
C:\PROGRAM FILES (X86)\WINDOWS KITS\10\INCLUDE\10.0.16299.0\UCRT\SHARE.H
C:\PROGRAM FILES (X86)\MICROSOFT VISUAL STUDIO\2017\COMMUNITY\VC\TOOLS\MSVC\14.13.26128\INCLUDE\XSTRING_INSERT.H
C:\PROGRAM FILES (X86)\MICROSOFT VISUAL STUDIO\2017\COMMUNITY\VC\TOOLS\MSVC\14.13.26128\INCLUDE\MAP
C:\PROGRAM FILES (X86)\MICROSOFT VISUAL STUDIO\2017\COMMUNITY\VC\TOOLS\MSVC\14.13.26128\INCLUDE\TUPLE
C:\PROGRAM FILES (X86)\MICROSOFT VISUAL STUDIO\2017\COMMUNITY\VC\TOOLS\MSVC\14.13.26128\INCLUDE\XTREE
C:\PROGRAM FILES (X86)\MICROSOFT VISUAL STUDIO\2017\COMMUNITY\VC\TOOLS\MSVC\14.13.26128\INCLUDE\XMEMORY
C:\PROGRAM FILES (X86)\MICROSOFT VISUAL STUDIO\2017\COMMUNITY\VC\TOOLS\MSVC\14.13.26128\INCLUDE\LIST
C:\PROGRAM FILES (X86)\WINDOWS KITS\10\INCLUDE\10.0.16299.0\UM\WINSOCK2.H
C:\PROGRAM FILES (X86)\WINDOWS KITS\10\INCLUDE\10.0.16299.0\SHARED\WINAPIFAMILY.H
C:\PROGRAM FILES (X86)\WINDOWS KITS\10\INCLUDE\10.0.16299.0\SHARED\WINPACKAGEFAMILY.H
C:\PROGRAM FILES (X86)\WINDOWS KITS\10\INCLUDE\10.0.16299.0\UM\WINDOWS.H
C:\PROGRAM FILES (X86)\WINDOWS KITS\10\INCLUDE\10.0.16299.0\SHARED\SDKDDKVER.H
C:\PROGRAM FILES (X86)\MICROSOFT VISUAL STUDIO\2017\COMMUNITY\VC\TOOLS\MSVC\14.13.26128\INCLUDE\EXCPT.H
C:\PROGRAM FILES (X86)\MICROSOFT VISUAL STUDIO\2017\COMMUNITY\VC\TOOLS\MSVC\14.13.26128\INCLUDE\STDARG.H
C:\PROGRAM FILES (X86)\WINDOWS KITS\10\INCLUDE\10.0.16299.0\SHARED\WINDEF.H
C:\PROGRAM FILES (X86)\WINDOWS KITS\10\INCLUDE\10.0.16299.0\SHARED\MINWINDEF.H
C:\PROGRAM FILES (X86)\WINDOWS KITS\10\INCLUDE\10.0.16299.0\SHARED\SPECSTRINGS.H
C:\PROGRAM FILES (X86)\WINDOWS KITS\10\INCLUDE\10.0.16299.0\SHARED\SPECSTRINGS_STRICT.H
C:\PROGRAM FILES (X86)\WINDOWS KITS\10\INCLUDE\10.0.16299.0\SHARED\SPECSTRINGS_UNDEF.H
C:\PROGRAM FILES (X86)\WINDOWS KITS\10\INCLUDE\10.0.16299.0\SHARED\DRIVERSPECS.H
C:\PROGRAM FILES (X86)\WINDOWS KITS\10\INCLUDE\10.0.16299.0\SHARED\SDV_DRIVERSPECS.H
C:\PROGRAM FILES (X86)\WINDOWS KITS\10\INCLUDE\10.0.16299.0\UM\WINNT.H
C:\PROGRAM FILES (X86)\WINDOWS KITS\10\INCLUDE\10.0.16299.0\SHARED\KERNELSPECS.H
C:\PROGRAM FILES (X86)\WINDOWS KITS\10\INCLUDE\10.0.16299.0\SHARED\BASETSD.H
C:\PROGRAM FILES (X86)\WINDOWS KITS\10\INCLUDE\10.0.16299.0\SHARED\GUIDDEF.H
C:\PROGRAM FILES (X86)\WINDOWS KITS\10\INCLUDE\10.0.16299.0\SHARED\PSHPACK4.H
C:\PROGRAM FILES (X86)\WINDOWS KITS\10\INCLUDE\10.0.16299.0\SHARED\POPPACK.H
C:\PROGRAM FILES (X86)\WINDOWS KITS\10\INCLUDE\10.0.16299.0\SHARED\PSHPACK2.H
C:\PROGRAM FILES (X86)\WINDOWS KITS\10\INCLUDE\10.0.16299.0\SHARED\PSHPACK8.H
C:\PROGRAM FILES (X86)\WINDOWS KITS\10\INCLUDE\10.0.16299.0\SHARED\PSHPACK1.H
C:\PROGRAM FILES (X86)\WINDOWS KITS\10\INCLUDE\10.0.16299.0\SHARED\APISET.H
C:\PROGRAM FILES (X86)\WINDOWS KITS\10\INCLUDE\10.0.16299.0\SHARED\KTMTYPES.H
C:\PROGRAM FILES (X86)\WINDOWS KITS\10\INCLUDE\10.0.16299.0\UM\WINBASE.H
C:\PROGRAM FILES (X86)\WINDOWS KITS\10\INCLUDE\10.0.16299.0\SHARED\APISETCCONV.H
C:\PROGRAM FILES (X86)\WINDOWS KITS\10\INCLUDE\10.0.16299.0\UM\MINWINBASE.H
C:\PROGRAM FILES (X86)\WINDOWS KITS\10\INCLUDE\10.0.16299.0\UM\PROCESSENV.H
C:\PROGRAM FILES (X86)\WINDOWS KITS\10\INCLUDE\10.0.16299.0\UM\FILEAPI.H
C:\PROGRAM FILES (X86)\WINDOWS KITS\10\INCLUDE\10.0.16299.0\UM\DEBUGAPI.H
C:\PROGRAM FILES (X86)\WINDOWS KITS\10\INCLUDE\10.0.16299.0\UM\UTILAPISET.H
C:\PROGRAM FILES (X86)\WINDOWS KITS\10\INCLUDE\10.0.16299.0\UM\HANDLEAPI.H
C:\PROGRAM FILES (X86)\WINDOWS KITS\10\INCLUDE\10.0.16299.0\UM\ERRHANDLINGAPI.H
C:\PROGRAM FILES (X86)\WINDOWS KITS\10\INCLUDE\10.0.16299.0\UM\FIBERSAPI.H
C:\PROGRAM FILES (X86)\WINDOWS KITS\10\INCLUDE\10.0.16299.0\UM\NAMEDPIPEAPI.H
C:\PROGRAM FILES (X86)\WINDOWS KITS\10\INCLUDE\10.0.16299.0\UM\PROFILEAPI.H
C:\PROGRAM FILES (X86)\WINDOWS KITS\10\INCLUDE\10.0.16299.0\UM\HEAPAPI.H
C:\PROGRAM FILES (X86)\WINDOWS KITS\10\INCLUDE\10.0.16299.0\UM\IOAPISET.H
C:\PROGRAM FILES (X86)\WINDOWS KITS\10\INCLUDE\10.0.16299.0\UM\SYNCHAPI.H
C:\PROGRAM FILES (X86)\WINDOWS KITS\10\INCLUDE\10.0.16299.0\UM\INTERLOCKEDAPI.H
C:\PROGRAM FILES (X86)\WINDOWS KITS\10\INCLUDE\10.0.16299.0\UM\PROCESSTHREADSAPI.H
C:\PROGRAM FILES (X86)\WINDOWS KITS\10\INCLUDE\10.0.16299.0\UM\SYSINFOAPI.H
C:\PROGRAM FILES (X86)\WINDOWS KITS\10\INCLUDE\10.0.16299.0\UM\MEMORYAPI.H
C:\PROGRAM FILES (X86)\WINDOWS KITS\10\INCLUDE\10.0.16299.0\UM\ENCLAVEAPI.H
C:\PROGRAM FILES (X86)\WINDOWS KITS\10\INCLUDE\10.0.16299.0\UM\THREADPOOLLEGACYAPISET.H
C:\PROGRAM FILES (X86)\WINDOWS KITS\10\INCLUDE\10.0.16299.0\UM\THREADPOOLAPISET.H
C:\PROGRAM FILES (X86)\WINDOWS KITS\10\INCLUDE\10.0.16299.0\UM\JOBAPI.H
C:\PROGRAM FILES (X86)\WINDOWS KITS\10\INCLUDE\10.0.16299.0\UM\JOBAPI2.H
C:\PROGRAM FILES (X86)\WINDOWS KITS\10\INCLUDE\10.0.16299.0\UM\WOW64APISET.H
C:\PROGRAM FILES (X86)\WINDOWS KITS\10\INCLUDE\10.0.16299.0\UM\LIBLOADERAPI.H
C:\PROGRAM FILES (X86)\WINDOWS KITS\10\INCLUDE\10.0.16299.0\UM\SECURITYBASEAPI.H
C:\PROGRAM FILES (X86)\WINDOWS KITS\10\INCLUDE\10.0.16299.0\UM\NAMESPACEAPI.H
C:\PROGRAM FILES (X86)\WINDOWS KITS\10\INCLUDE\10.0.16299.0\UM\SYSTEMTOPOLOGYAPI.H
C:\PROGRAM FILES (X86)\WINDOWS KITS\10\INCLUDE\10.0.16299.0\UM\PROCESSTOPOLOGYAPI.H
C:\PROGRAM FILES (X86)\WINDOWS KITS\10\INCLUDE\10.0.16299.0\UM\SECURITYAPPCONTAINER.H
C:\PROGRAM FILES (X86)\WINDOWS KITS\10\INCLUDE\10.0.16299.0\UM\REALTIMEAPISET.H
C:\PROGRAM FILES (X86)\WINDOWS KITS\10\INCLUDE\10.0.16299.0\SHARED\WINERROR.H
C:\PROGRAM FILES (X86)\WINDOWS KITS\10\INCLUDE\10.0.16299.0\UM\TIMEZONEAPI.H
C:\PROGRAM FILES (X86)\WINDOWS KITS\10\INCLUDE\10.0.16299.0\UM\WINGDI.H
C:\PROGRAM FILES (X86)\WINDOWS KITS\10\INCLUDE\10.0.16299.0\UM\WINUSER.H
C:\PROGRAM FILES (X86)\WINDOWS KITS\10\INCLUDE\10.0.16299.0\SHARED\TVOUT.H
C:\PROGRAM FILES (X86)\WINDOWS KITS\10\INCLUDE\10.0.16299.0\UM\WINNLS.H
C:\PROGRAM FILES (X86)\WINDOWS KITS\10\INCLUDE\10.0.16299.0\UM\DATETIMEAPI.H
C:\PROGRAM FILES (X86)\WINDOWS KITS\10\INCLUDE\10.0.16299.0\UM\STRINGAPISET.H
C:\PROGRAM FILES (X86)\WINDOWS KITS\10\INCLUDE\10.0.16299.0\UM\WINCON.H
C:\PROGRAM FILES (X86)\WINDOWS KITS\10\INCLUDE\10.0.16299.0\UM\CONSOLEAPI.H
C:\PROGRAM FILES (X86)\WINDOWS KITS\10\INCLUDE\10.0.16299.0\UM\WINVER.H
C:\PROGRAM FILES (X86)\WINDOWS KITS\10\INCLUDE\10.0.16299.0\UM\VERRSRC.H
C:\PROGRAM FILES (X86)\WINDOWS KITS\10\INCLUDE\10.0.16299.0\UM\WINREG.H
C:\PROGRAM FILES (X86)\WINDOWS KITS\10\INCLUDE\10.0.16299.0\UM\REASON.H
C:\PROGRAM FILES (X86)\WINDOWS KITS\10\INCLUDE\10.0.16299.0\UM\WINNETWK.H
C:\PROGRAM FILES (X86)\WINDOWS KITS\10\INCLUDE\10.0.16299.0\SHARED\WNNC.H
C:\PROGRAM FILES (X86)\WINDOWS KITS\10\INCLUDE\10.0.16299.0\SHARED\CDERR.H
C:\PROGRAM FILES (X86)\WINDOWS KITS\10\INCLUDE\10.0.16299.0\UM\DDE.H
C:\PROGRAM FILES (X86)\WINDOWS KITS\10\INCLUDE\10.0.16299.0\UM\DDEML.H
C:\PROGRAM FILES (X86)\WINDOWS KITS\10\INCLUDE\10.0.16299.0\UM\DLGS.H
C:\PROGRAM FILES (X86)\WINDOWS KITS\10\INCLUDE\10.0.16299.0\UM\LZEXPAND.H
C:\PROGRAM FILES (X86)\WINDOWS KITS\10\INCLUDE\10.0.16299.0\UM\MMSYSTEM.H
C:\PROGRAM FILES (X86)\WINDOWS KITS\10\INCLUDE\10.0.16299.0\UM\MMSYSCOM.H
C:\PROGRAM FILES (X86)\WINDOWS KITS\10\INCLUDE\10.0.16299.0\UM\MCIAPI.H
C:\PROGRAM FILES (X86)\WINDOWS KITS\10\INCLUDE\10.0.16299.0\UM\MMISCAPI.H
C:\PROGRAM FILES (X86)\WINDOWS KITS\10\INCLUDE\10.0.16299.0\UM\MMISCAPI2.H
C:\PROGRAM FILES (X86)\WINDOWS KITS\10\INCLUDE\10.0.16299.0\UM\PLAYSOUNDAPI.H
C:\PROGRAM FILES (X86)\WINDOWS KITS\10\INCLUDE\10.0.16299.0\UM\MMEAPI.H
C:\PROGRAM FILES (X86)\WINDOWS KITS\10\INCLUDE\10.0.16299.0\UM\TIMEAPI.H
C:\PROGRAM FILES (X86)\WINDOWS KITS\10\INCLUDE\10.0.16299.0\UM\JOYSTICKAPI.H
C:\PROGRAM FILES (X86)\WINDOWS KITS\10\INCLUDE\10.0.16299.0\UM\NB30.H
C:\PROGRAM FILES (X86)\WINDOWS KITS\10\INCLUDE\10.0.16299.0\SHARED\RPC.H
C:\PROGRAM FILES (X86)\WINDOWS KITS\10\INCLUDE\10.0.16299.0\SHARED\RPCDCE.H
C:\PROGRAM FILES (X86)\WINDOWS KITS\10\INCLUDE\10.0.16299.0\SHARED\RPCDCEP.H
C:\PROGRAM FILES (X86)\WINDOWS KITS\10\INCLUDE\10.0.16299.0\UM\RPCNSI.H
C:\PROGRAM FILES (X86)\WINDOWS KITS\10\INCLUDE\10.0.16299.0\SHARED\RPCNTERR.H
C:\PROGRAM FILES (X86)\WINDOWS KITS\10\INCLUDE\10.0.16299.0\SHARED\RPCASYNC.H
C:\PROGRAM FILES (X86)\WINDOWS KITS\10\INCLUDE\10.0.16299.0\UM\SHELLAPI.H
C:\PROGRAM FILES (X86)\WINDOWS KITS\10\INCLUDE\10.0.16299.0\UM\WINPERF.H
C:\PROGRAM FILES (X86)\WINDOWS KITS\10\INCLUDE\10.0.16299.0\UM\WINSOCK.H
C:\PROGRAM FILES (X86)\WINDOWS KITS\10\INCLUDE\10.0.16299.0\UM\WINCRYPT.H
C:\PROGRAM FILES (X86)\WINDOWS KITS\10\INCLUDE\10.0.16299.0\SHARED\BCRYPT.H
C:\PROGRAM FILES (X86)\WINDOWS KITS\10\INCLUDE\10.0.16299.0\UM\NCRYPT.H
C:\PROGRAM FILES (X86)\WINDOWS KITS\10\INCLUDE\10.0.16299.0\UM\DPAPI.H
C:\PROGRAM FILES (X86)\WINDOWS KITS\10\INCLUDE\10.0.16299.0\UM\WINEFS.H
C:\PROGRAM FILES (X86)\WINDOWS KITS\10\INCLUDE\10.0.16299.0\UM\WINSCARD.H
C:\PROGRAM FILES (X86)\WINDOWS KITS\10\INCLUDE\10.0.16299.0\SHARED\WTYPES.H
C:\PROGRAM FILES (X86)\WINDOWS KITS\10\INCLUDE\10.0.16299.0\SHARED\RPCNDR.H
C:\PROGRAM FILES (X86)\WINDOWS KITS\10\INCLUDE\10.0.16299.0\UM\RPCNSIP.H
C:\PROGRAM FILES (X86)\WINDOWS KITS\10\INCLUDE\10.0.16299.0\SHARED\RPCSAL.H
C:\PROGRAM FILES (X86)\WINDOWS KITS\10\INCLUDE\10.0.16299.0\SHARED\WTYPESBASE.H
C:\PROGRAM FILES (X86)\WINDOWS KITS\10\INCLUDE\10.0.16299.0\UM\WINIOCTL.H
C:\PROGRAM FILES (X86)\WINDOWS KITS\10\INCLUDE\10.0.16299.0\SHARED\WINSMCRD.H
C:\PROGRAM FILES (X86)\WINDOWS KITS\10\INCLUDE\10.0.16299.0\UM\WINSPOOL.H
C:\PROGRAM FILES (X86)\WINDOWS KITS\10\INCLUDE\10.0.16299.0\UM\PRSHT.H
C:\PROGRAM FILES (X86)\WINDOWS KITS\10\INCLUDE\10.0.16299.0\UM\OLE2.H
C:\PROGRAM FILES (X86)\WINDOWS KITS\10\INCLUDE\10.0.16299.0\UM\OBJBASE.H
C:\PROGRAM FILES (X86)\WINDOWS KITS\10\INCLUDE\10.0.16299.0\UM\COMBASEAPI.H
C:\PROGRAM FILES (X86)\WINDOWS KITS\10\INCLUDE\10.0.16299.0\UM\UNKNWNBASE.H
C:\PROGRAM FILES (X86)\WINDOWS KITS\10\INCLUDE\10.0.16299.0\UM\OBJIDLBASE.H
C:\PROGRAM FILES (X86)\WINDOWS KITS\10\INCLUDE\10.0.16299.0\UM\CGUID.H
C:\PROGRAM FILES (X86)\WINDOWS KITS\10\INCLUDE\10.0.16299.0\UM\COML2API.H
C:\PROGRAM FILES (X86)\WINDOWS KITS\10\INCLUDE\10.0.16299.0\UM\OBJIDL.H
C:\PROGRAM FILES (X86)\WINDOWS KITS\10\INCLUDE\10.0.16299.0\UM\UNKNWN.H
C:\PROGRAM FILES (X86)\WINDOWS KITS\10\INCLUDE\10.0.16299.0\UM\PROPIDLBASE.H
C:\PROGRAM FILES (X86)\WINDOWS KITS\10\INCLUDE\10.0.16299.0\UM\OAIDL.H
C:\PROGRAM FILES (X86)\WINDOWS KITS\10\INCLUDE\10.0.16299.0\UM\URLMON.H
C:\PROGRAM FILES (X86)\WINDOWS KITS\10\INCLUDE\10.0.16299.0\UM\OLEIDL.H
C:\PROGRAM FILES (X86)\WINDOWS KITS\10\INCLUDE\10.0.16299.0\UM\SERVPROV.H
C:\PROGRAM FILES (X86)\WINDOWS KITS\10\INCLUDE\10.0.16299.0\UM\MSXML.H
C:\PROGRAM FILES (X86)\WINDOWS KITS\10\INCLUDE\10.0.16299.0\UM\PROPIDL.H
C:\PROGRAM FILES (X86)\WINDOWS KITS\10\INCLUDE\10.0.16299.0\UM\OLEAUTO.H
C:\PROGRAM FILES (X86)\WINDOWS KITS\10\INCLUDE\10.0.16299.0\UM\COMMDLG.H
C:\PROGRAM FILES (X86)\WINDOWS KITS\10\INCLUDE\10.0.16299.0\SHARED\STRALIGN.H
C:\PROGRAM FILES (X86)\WINDOWS KITS\10\INCLUDE\10.0.16299.0\UM\WINSVC.H
C:\PROGRAM FILES (X86)\WINDOWS KITS\10\INCLUDE\10.0.16299.0\UM\MCX.H
C:\PROGRAM FILES (X86)\WINDOWS KITS\10\INCLUDE\10.0.16299.0\UM\IMM.H
C:\PROGRAM FILES (X86)\WINDOWS KITS\10\INCLUDE\10.0.16299.0\UM\IME_CMODES.H
C:\PROGRAM FILES (X86)\WINDOWS KITS\10\INCLUDE\10.0.16299.0\SHARED\WS2DEF.H
C:\PROGRAM FILES (X86)\WINDOWS KITS\10\INCLUDE\10.0.16299.0\SHARED\INADDR.H
C:\PROGRAM FILES (X86)\WINDOWS KITS\10\INCLUDE\10.0.16299.0\SHARED\QOS.H
C:\USERS\HAKAN\DESKTOP\OOP_1PROJECT\OOP_1PROJECT\ARSERIALCONNECTION.H
C:\USERS\HAKAN\DESKTOP\OOP_1PROJECT\OOP_1PROJECT\ARDEVICECONNECTION.H
C:\USERS\HAKAN\DESKTOP\OOP_1PROJECT\OOP_1PROJECT\ARIAUTIL.H
C:\PROGRAM FILES (X86)\MICROSOFT VISUAL STUDIO\2017\COMMUNITY\VC\TOOLS\MSVC\14.13.26128\INCLUDE\VECTOR
C:\PROGRAM FILES (X86)\WINDOWS KITS\10\INCLUDE\10.0.16299.0\UCRT\SYS\TIMEB.H
C:\USERS\HAKAN\DESKTOP\OOP_1PROJECT\OOP_1PROJECT\ARLOG.H
C:\USERS\HAKAN\DESKTOP\OOP_1PROJECT\OOP_1PROJECT\ARMUTEX.H
C:\USERS\HAKAN\DESKTOP\OOP_1PROJECT\OOP_1PROJECT\ARFUNCTOR.H
C:\USERS\HAKAN\DESKTOP\OOP_1PROJECT\OOP_1PROJECT\ARARGUMENTPARSER.H
C:\USERS\HAKAN\DESKTOP\OOP_1PROJECT\OOP_1PROJECT\ARARGUMENTBUILDER.H
C:\USERS\HAKAN\DESKTOP\OOP_1PROJECT\OOP_1PROJECT\ARBASEPACKET.H
C:\USERS\HAKAN\DESKTOP\OOP_1PROJECT\OOP_1PROJECT\ARTCPCONNECTION.H
C:\USERS\HAKAN\DESKTOP\OOP_1PROJECT\OOP_1PROJECT\ARSOCKET.H
C:\USERS\HAKAN\DESKTOP\OOP_1PROJECT\OOP_1PROJECT\ARSIMPLECONNECTOR.H
C:\USERS\HAKAN\DESKTOP\OOP_1PROJECT\OOP_1PROJECT\ARROBOTCONNECTOR.H
C:\USERS\HAKAN\DESKTOP\OOP_1PROJECT\OOP_1PROJECT\ARLASERCONNECTOR.H
C:\USERS\HAKAN\DESKTOP\OOP_1PROJECT\OOP_1PROJECT\ARLOGFILECONNECTION.H
C:\USERS\HAKAN\DESKTOP\OOP_1PROJECT\OOP_1PROJECT\ARROBOTPACKET.H
C:\USERS\HAKAN\DESKTOP\OOP_1PROJECT\OOP_1PROJECT\ARROBOTPACKETSENDER.H
C:\USERS\HAKAN\DESKTOP\OOP_1PROJECT\OOP_1PROJECT\ARROBOTPACKETRECEIVER.H
C:\USERS\HAKAN\DESKTOP\OOP_1PROJECT\OOP_1PROJECT\ARROBOTCONFIGPACKETREADER.H
C:\USERS\HAKAN\DESKTOP\OOP_1PROJECT\OOP_1PROJECT\ARROBOTTYPES.H
C:\USERS\HAKAN\DESKTOP\OOP_1PROJECT\OOP_1PROJECT\ARROBOTPARAMS.H
C:\USERS\HAKAN\DESKTOP\OOP_1PROJECT\OOP_1PROJECT\ARCONFIG.H
C:\USERS\HAKAN\DESKTOP\OOP_1PROJECT\OOP_1PROJECT\ARCONFIGARG.H
C:\USERS\HAKAN\DESKTOP\OOP_1PROJECT\OOP_1PROJECT\ARFILEPARSER.H
C:\USERS\HAKAN\DESKTOP\OOP_1PROJECT\OOP_1PROJECT\ARHASFILENAME.H
C:\PROGRAM FILES (X86)\MICROSOFT VISUAL STUDIO\2017\COMMUNITY\VC\TOOLS\MSVC\14.13.26128\INCLUDE\SET
C:\USERS\HAKAN\DESKTOP\OOP_1PROJECT\OOP_1PROJECT\ARCONFIGGROUP.H
C:\USERS\HAKAN\DESKTOP\OOP_1PROJECT\OOP_1PROJECT\ARROBOT.H
C:\USERS\HAKAN\DESKTOP\OOP_1PROJECT\OOP_1PROJECT\ARSYNCTASK.H
C:\USERS\HAKAN\DESKTOP\OOP_1PROJECT\OOP_1PROJECT\ARTASKSTATE.H
C:\USERS\HAKAN\DESKTOP\OOP_1PROJECT\OOP_1PROJECT\ARSENSORREADING.H
C:\USERS\HAKAN\DESKTOP\OOP_1PROJECT\OOP_1PROJECT\ARTRANSFORM.H
C:\USERS\HAKAN\DESKTOP\OOP_1PROJECT\OOP_1PROJECT\ARCONDITION.H
C:\USERS\HAKAN\DESKTOP\OOP_1PROJECT\OOP_1PROJECT\ARSYNCLOOP.H
C:\USERS\HAKAN\DESKTOP\OOP_1PROJECT\OOP_1PROJECT\ARASYNCTASK.H
C:\USERS\HAKAN\DESKTOP\OOP_1PROJECT\OOP_1PROJECT\ARTHREAD.H
C:\USERS\HAKAN\DESKTOP\OOP_1PROJECT\OOP_1PROJECT\ARROBOTPACKETREADERTHREAD.H
C:\USERS\HAKAN\DESKTOP\OOP_1PROJECT\OOP_1PROJECT\ARACTIONDESIRED.H
C:\USERS\HAKAN\DESKTOP\OOP_1PROJECT\OOP_1PROJECT\ARRESOLVER.H
C:\USERS\HAKAN\DESKTOP\OOP_1PROJECT\OOP_1PROJECT\ARINTERPOLATION.H
C:\USERS\HAKAN\DESKTOP\OOP_1PROJECT\OOP_1PROJECT\ARKEYHANDLER.H
C:\USERS\HAKAN\DESKTOP\OOP_1PROJECT\OOP_1PROJECT\ARCOMMANDS.H
C:\USERS\HAKAN\DESKTOP\OOP_1PROJECT\OOP_1PROJECT\ARJOYHANDLER.H
C:\USERS\HAKAN\DESKTOP\OOP_1PROJECT\OOP_1PROJECT\ARIAINTERNAL.H
C:\USERS\HAKAN\DESKTOP\OOP_1PROJECT\OOP_1PROJECT\ARSTRINGINFOGROUP.H
C:\USERS\HAKAN\DESKTOP\OOP_1PROJECT\OOP_1PROJECT\ARSONARDEVICE.H
C:\USERS\HAKAN\DESKTOP\OOP_1PROJECT\OOP_1PROJECT\ARRANGEDEVICE.H
C:\USERS\HAKAN\DESKTOP\OOP_1PROJECT\OOP_1PROJECT\ARRANGEBUFFER.H
C:\USERS\HAKAN\DESKTOP\OOP_1PROJECT\OOP_1PROJECT\ARDRAWINGDATA.H
C:\USERS\HAKAN\DESKTOP\OOP_1PROJECT\OOP_1PROJECT\ARPRIORITYRESOLVER.H
C:\USERS\HAKAN\DESKTOP\OOP_1PROJECT\OOP_1PROJECT\ARACTION.H
C:\USERS\HAKAN\DESKTOP\OOP_1PROJECT\OOP_1PROJECT\ARARG.H
C:\USERS\HAKAN\DESKTOP\OOP_1PROJECT\OOP_1PROJECT\ARACTIONGROUP.H
C:\USERS\HAKAN\DESKTOP\OOP_1PROJECT\OOP_1PROJECT\ARACTIONGROUPS.H
C:\USERS\HAKAN\DESKTOP\OOP_1PROJECT\OOP_1PROJECT\ARACTIONCOLORFOLLOW.H
C:\USERS\HAKAN\DESKTOP\OOP_1PROJECT\OOP_1PROJECT\ARACTS.H
C:\USERS\HAKAN\DESKTOP\OOP_1PROJECT\OOP_1PROJECT\ARPTZ.H
C:\USERS\HAKAN\DESKTOP\OOP_1PROJECT\OOP_1PROJECT\ARPTZCONNECTOR.H
C:\USERS\HAKAN\DESKTOP\OOP_1PROJECT\OOP_1PROJECT\ARACTIONDECELERATINGLIMITER.H
C:\USERS\HAKAN\DESKTOP\OOP_1PROJECT\OOP_1PROJECT\ARACTIONLIMITERFORWARDS.H
C:\USERS\HAKAN\DESKTOP\OOP_1PROJECT\OOP_1PROJECT\ARACTIONLIMITERBACKWARDS.H
C:\USERS\HAKAN\DESKTOP\OOP_1PROJECT\OOP_1PROJECT\ARACTIONLIMITERTABLESENSOR.H
C:\USERS\HAKAN\DESKTOP\OOP_1PROJECT\OOP_1PROJECT\ARACTIONBUMPERS.H
C:\USERS\HAKAN\DESKTOP\OOP_1PROJECT\OOP_1PROJECT\ARACTIONIRS.H
C:\USERS\HAKAN\DESKTOP\OOP_1PROJECT\OOP_1PROJECT\ARACTIONSTALLRECOVER.H
C:\USERS\HAKAN\DESKTOP\OOP_1PROJECT\OOP_1PROJECT\ARACTIONAVOIDFRONT.H
C:\USERS\HAKAN\DESKTOP\OOP_1PROJECT\OOP_1PROJECT\ARACTIONAVOIDSIDE.H
C:\USERS\HAKAN\DESKTOP\OOP_1PROJECT\OOP_1PROJECT\ARACTIONCONSTANTVELOCITY.H
C:\USERS\HAKAN\DESKTOP\OOP_1PROJECT\OOP_1PROJECT\ARACTIONINPUT.H
C:\USERS\HAKAN\DESKTOP\OOP_1PROJECT\OOP_1PROJECT\ARACTIONROBOTJOYDRIVE.H
C:\USERS\HAKAN\DESKTOP\OOP_1PROJECT\OOP_1PROJECT\ARACTIONJOYDRIVE.H
C:\USERS\HAKAN\DESKTOP\OOP_1PROJECT\OOP_1PROJECT\ARACTIONKEYDRIVE.H
C:\USERS\HAKAN\DESKTOP\OOP_1PROJECT\OOP_1PROJECT\ARACTIONTRIANGLEDRIVETO.H
C:\USERS\HAKAN\DESKTOP\OOP_1PROJECT\OOP_1PROJECT\ARLINEFINDER.H
C:\USERS\HAKAN\DESKTOP\OOP_1PROJECT\OOP_1PROJECT\ARACTIONTURN.H
C:\USERS\HAKAN\DESKTOP\OOP_1PROJECT\OOP_1PROJECT\ARACTIONRATIOINPUT.H
C:\USERS\HAKAN\DESKTOP\OOP_1PROJECT\OOP_1PROJECT\ARACTIONSTOP.H
C:\USERS\HAKAN\DESKTOP\OOP_1PROJECT\OOP_1PROJECT\ARACTIONGOTO.H
C:\USERS\HAKAN\DESKTOP\OOP_1PROJECT\OOP_1PROJECT\ARMODULE.H
C:\USERS\HAKAN\DESKTOP\OOP_1PROJECT\OOP_1PROJECT\ARMODULELOADER.H
C:\USERS\HAKAN\DESKTOP\OOP_1PROJECT\OOP_1PROJECT\ARRECURRENTTASK.H
C:\USERS\HAKAN\DESKTOP\OOP_1PROJECT\OOP_1PROJECT\ARGRIPPER.H
C:\USERS\HAKAN\DESKTOP\OOP_1PROJECT\OOP_1PROJECT\ARSONYPTZ.H
C:\USERS\HAKAN\DESKTOP\OOP_1PROJECT\OOP_1PROJECT\ARRVISIONPTZ.H
C:\USERS\HAKAN\DESKTOP\OOP_1PROJECT\OOP_1PROJECT\ARAMPTU.H
C:\USERS\HAKAN\DESKTOP\OOP_1PROJECT\OOP_1PROJECT\ARP2ARM.H
C:\USERS\HAKAN\DESKTOP\OOP_1PROJECT\OOP_1PROJECT\ARSICK.H
C:\USERS\HAKAN\DESKTOP\OOP_1PROJECT\OOP_1PROJECT\ARLASER.H
C:\USERS\HAKAN\DESKTOP\OOP_1PROJECT\OOP_1PROJECT\ARRANGEDEVICETHREADED.H
C:\USERS\HAKAN\DESKTOP\OOP_1PROJECT\OOP_1PROJECT\ARFUNCTORASYNCTASK.H
C:\USERS\HAKAN\DESKTOP\OOP_1PROJECT\OOP_1PROJECT\ARLMS2XX.H
C:\USERS\HAKAN\DESKTOP\OOP_1PROJECT\OOP_1PROJECT\ARLMS2XXPACKET.H
C:\USERS\HAKAN\DESKTOP\OOP_1PROJECT\OOP_1PROJECT\ARLMS2XXPACKETRECEIVER.H
C:\USERS\HAKAN\DESKTOP\OOP_1PROJECT\OOP_1PROJECT\ARLASERLOGGER.H
C:\USERS\HAKAN\DESKTOP\OOP_1PROJECT\OOP_1PROJECT\ARIRRFDEVICE.H
C:\USERS\HAKAN\DESKTOP\OOP_1PROJECT\OOP_1PROJECT\ARDPPTU.H
C:\USERS\HAKAN\DESKTOP\OOP_1PROJECT\OOP_1PROJECT\ARVCC4.H
C:\USERS\HAKAN\DESKTOP\OOP_1PROJECT\OOP_1PROJECT\ARMODE.H
C:\USERS\HAKAN\DESKTOP\OOP_1PROJECT\OOP_1PROJECT\ARMODES.H
C:\USERS\HAKAN\DESKTOP\OOP_1PROJECT\OOP_1PROJECT\ARTCMCOMPASSROBOT.H
C:\USERS\HAKAN\DESKTOP\OOP_1PROJECT\OOP_1PROJECT\ARTCM2.H
C:\USERS\HAKAN\DESKTOP\OOP_1PROJECT\OOP_1PROJECT\ARNETSERVER.H
C:\USERS\HAKAN\DESKTOP\OOP_1PROJECT\OOP_1PROJECT\ARSIGNALHANDLER.H
C:\USERS\HAKAN\DESKTOP\OOP_1PROJECT\OOP_1PROJECT\ARANALOGGYRO.H
C:\USERS\HAKAN\DESKTOP\OOP_1PROJECT\OOP_1PROJECT\ARMAPINTERFACE.H
C:\USERS\HAKAN\DESKTOP\OOP_1PROJECT\OOP_1PROJECT\ARMAPOBJECT.H
C:\USERS\HAKAN\DESKTOP\OOP_1PROJECT\OOP_1PROJECT\ARMAPUTILS.H
C:\PROGRAM FILES (X86)\MICROSOFT VISUAL STUDIO\2017\COMMUNITY\VC\TOOLS\MSVC\14.13.26128\INCLUDE\ALGORITHM
C:\PROGRAM FILES (X86)\MICROSOFT VISUAL STUDIO\2017\COMMUNITY\VC\TOOLS\MSVC\14.13.26128\INCLUDE\FUNCTIONAL
C:\PROGRAM FILES (X86)\MICROSOFT VISUAL STUDIO\2017\COMMUNITY\VC\TOOLS\MSVC\14.13.26128\INCLUDE\XFUNCTIONAL
C:\USERS\HAKAN\DESKTOP\OOP_1PROJECT\OOP_1PROJECT\ARMAP.H
C:\USERS\HAKAN\DESKTOP\OOP_1PROJECT\OOP_1PROJECT\ARMAPCOMPONENTS.H
C:\USERS\HAKAN\DESKTOP\OOP_1PROJECT\OOP_1PROJECT\ARGPSCOORDS.H
C:\USERS\HAKAN\DESKTOP\OOP_1PROJECT\OOP_1PROJECT\ARBUMPERS.H
C:\USERS\HAKAN\DESKTOP\OOP_1PROJECT\OOP_1PROJECT\ARIRS.H
C:\USERS\HAKAN\DESKTOP\OOP_1PROJECT\OOP_1PROJECT\ARFORBIDDENRANGEDEVICE.H
C:\USERS\HAKAN\DESKTOP\OOP_1PROJECT\OOP_1PROJECT\ARACTIONGOTOSTRAIGHT.H
C:\USERS\HAKAN\DESKTOP\OOP_1PROJECT\OOP_1PROJECT\ARDATALOGGER.H
C:\USERS\HAKAN\DESKTOP\OOP_1PROJECT\OOP_1PROJECT\ARROBOTJOYHANDLER.H
C:\USERS\HAKAN\DESKTOP\OOP_1PROJECT\OOP_1PROJECT\ARRATIOINPUTKEYDRIVE.H
C:\USERS\HAKAN\DESKTOP\OOP_1PROJECT\OOP_1PROJECT\ARRATIOINPUTJOYDRIVE.H
C:\USERS\HAKAN\DESKTOP\OOP_1PROJECT\OOP_1PROJECT\ARRATIOINPUTROBOTJOYDRIVE.H
C:\USERS\HAKAN\DESKTOP\OOP_1PROJECT\OOP_1PROJECT\ARACTIONMOVEMENTPARAMETERS.H
C:\USERS\HAKAN\DESKTOP\OOP_1PROJECT\OOP_1PROJECT\ARSOUNDPLAYER.H
C:\USERS\HAKAN\DESKTOP\OOP_1PROJECT\OOP_1PROJECT\ARSOUNDSQUEUE.H
C:\USERS\HAKAN\DESKTOP\OOP_1PROJECT\OOP_1PROJECT\ARSPEECH.H
C:\USERS\HAKAN\DESKTOP\OOP_1PROJECT\OOP_1PROJECT\ARCAMERACOLLECTION.H
C:\USERS\HAKAN\DESKTOP\OOP_1PROJECT\OOP_1PROJECT\ARCAMERACOMMANDS.H
C:\USERS\HAKAN\DESKTOP\OOP_1PROJECT\OOP_1PROJECT\ARSONARAUTODISABLER.H
C:\USERS\HAKAN\DESKTOP\OOP_1PROJECT\OOP_1PROJECT\ARACTIONDRIVEDISTANCE.H
C:\USERS\HAKAN\DESKTOP\OOP_1PROJECT\OOP_1PROJECT\ARLASERREFLECTORDEVICE.H
C:\USERS\HAKAN\DESKTOP\OOP_1PROJECT\OOP_1PROJECT\ARROBOTCONFIG.H
C:\USERS\HAKAN\DESKTOP\OOP_1PROJECT\OOP_1PROJECT\ARTCMCOMPASSDIRECT.H
C:\USERS\HAKAN\DESKTOP\OOP_1PROJECT\OOP_1PROJECT\ARNMEAPARSER.H
C:\USERS\HAKAN\DESKTOP\OOP_1PROJECT\OOP_1PROJECT\ARLASERFILTER.H
C:\USERS\HAKAN\DESKTOP\OOP_1PROJECT\OOP_1PROJECT\ARURG.H
C:\USERS\HAKAN\DESKTOP\OOP_1PROJECT\OOP_1PROJECT\ARGPS.H
C:\USERS\HAKAN\DESKTOP\OOP_1PROJECT\OOP_1PROJECT\ARTRIMBLEGPS.H
C:\PROGRAM FILES (X86)\MICROSOFT VISUAL STUDIO\2017\COMMUNITY\VC\TOOLS\MSVC\14.13.26128\INCLUDE\DEQUE
C:\USERS\HAKAN\DESKTOP\OOP_1PROJECT\OOP_1PROJECT\ARNOVATELGPS.H
C:\USERS\HAKAN\DESKTOP\OOP_1PROJECT\OOP_1PROJECT\ARSONARCONNECTOR.H
C:\USERS\HAKAN\DESKTOP\OOP_1PROJECT\OOP_1PROJECT\ARBATTERYCONNECTOR.H
C:\USERS\HAKAN\DESKTOP\OOP_1PROJECT\OOP_1PROJECT\ARLCDCONNECTOR.H
C:\USERS\HAKAN\DESKTOP\OOP_1PROJECT\OOP_1PROJECT\ARSONARMTX.H
C:\USERS\HAKAN\DESKTOP\OOP_1PROJECT\OOP_1PROJECT\ARBATTERYMTX.H
C:\USERS\HAKAN\DESKTOP\OOP_1PROJECT\OOP_1PROJECT\ARLCDMTX.H
C:\USERS\HAKAN\DESKTOP\OOP_1PROJECT\OOP_1PROJECT\ARSIMULATEDLASER.H
C:\USERS\HAKAN\DESKTOP\OOP_1PROJECT\OOP_1PROJECT\AREXITERRORSOURCE.H
C:\USERS\HAKAN\DESKTOP\OOP_1PROJECT\OOP_1PROJECT\ARACTIONLIMITERROT.H
C:\USERS\HAKAN\DESKTOP\OOP_1PROJECT\OOP_1PROJECT\ARROBOTBATTERYPACKETREADER.H
C:\USERS\HAKAN\DESKTOP\OOP_1PROJECT\OOP_1PROJECT\ARLMS1XX.H
C:\USERS\HAKAN\DESKTOP\OOP_1PROJECT\OOP_1PROJECT\ARURG_2_0.H
C:\USERS\HAKAN\DESKTOP\OOP_1PROJECT\OOP_1PROJECT\ARACTIONMOVEMENTPARAMETERSDEBUGGING.H
C:\USERS\HAKAN\DESKTOP\OOP_1PROJECT\OOP_1PROJECT\ARZIPPABLE.H
C:\USERS\HAKAN\DESKTOP\OOP_1PROJECT\OOP_1PROJECT\ARS3SERIES.H
C:\USERS\HAKAN\DESKTOP\OOP_1PROJECT\OOP_1PROJECT\ARSZSERIES.H
C:\PROGRAM FILES (X86)\MICROSOFT VISUAL STUDIO\2017\COMMUNITY\VC\TOOLS\MSVC\14.13.26128\INCLUDE\IOSTREAM
^C:\USERS\HAKAN\DESKTOP\OOP_1PROJECT\OOP_1PROJECT\NODE.CPP
C:\WINDOWS\GLOBALIZATION\SORTING\SORTDEFAULT.NLS
C:\PROGRAM FILES (X86)\MICROSOFT VISUAL STUDIO\2017\COMMUNITY\VC\TOOLS\MSVC\14.13.26128\BIN\HOSTX86\X64\1033\CLUI.DLL
C:\WINDOWS\SYSTEM32\TZRES.DLL
C:\USERS\HAKAN\DESKTOP\OOP_1PROJECT\OOP_1PROJECT\NODE.H
